%!PS-Adobe-3.0 EPSF-3.0
%%Creator: MATLAB, The MathWorks, Inc. Version 8.3.0.532 (R2014a). Operating System: Linux 3.7.10-1.40-desktop #1 SMP PREEMPT Thu Jul 10 11:22:12 UTC 2014 (9b06319) x86_64.
%%Title: /home/student/2014/scholz/Dokumente/final data/Faultleakage_multi_3_confining.eps
%%CreationDate: 10/02/2014  10:57:37
%%DocumentNeededFonts: Helvetica
%%DocumentProcessColors: Cyan Magenta Yellow Black
%%LanguageLevel: 2
%%Pages: 1
%%BoundingBox:    93   236   517   556
%%EndComments

%%BeginProlog
% MathWorks dictionary
/MathWorks 160 dict begin
% definition operators
/bdef {bind def} bind def
/ldef {load def} bind def
/xdef {exch def} bdef
/xstore {exch store} bdef
% operator abbreviations
/c  /clip ldef
/cc /concat ldef
/cp /closepath ldef
/gr /grestore ldef
/gs /gsave ldef
/mt /moveto ldef
/np /newpath ldef
/cm /currentmatrix ldef
/sm /setmatrix ldef
/rm /rmoveto ldef
/rl /rlineto ldef
/s {show newpath} bdef
/sc {setcmykcolor} bdef
/sr /setrgbcolor ldef
/sg /setgray ldef
/w /setlinewidth ldef
/j /setlinejoin ldef
/cap /setlinecap ldef
/rc {rectclip} bdef
/rf {rectfill} bdef
% page state control
/pgsv () def
/bpage {/pgsv save def} bdef
/epage {pgsv restore} bdef
/bplot /gsave ldef
/eplot {stroke grestore} bdef
% orientation switch
/portraitMode 0 def /landscapeMode 1 def /rotateMode 2 def
% coordinate system mappings
/dpi2point 0 def
% font control
/FontSize 0 def
/FMS {/FontSize xstore findfont [FontSize 0 0 FontSize neg 0 0]
  makefont setfont} bdef
/reencode {exch dup where {pop load} {pop StandardEncoding} ifelse
  exch dup 3 1 roll findfont dup length dict begin
  { 1 index /FID ne {def}{pop pop} ifelse } forall
  /Encoding exch def currentdict end definefont pop} bdef
/isroman {findfont /CharStrings get /Agrave known} bdef
/FMSR {3 1 roll 1 index dup isroman {reencode} {pop pop} ifelse
  exch FMS} bdef
/csm {1 dpi2point div -1 dpi2point div scale neg translate
 dup landscapeMode eq {pop -90 rotate}
  {rotateMode eq {90 rotate} if} ifelse} bdef
% line types: solid, dotted, dashed, dotdash
/SO { [] 0 setdash } bdef
/DO { [.5 dpi2point mul 4 dpi2point mul] 0 setdash } bdef
/DA { [6 dpi2point mul] 0 setdash } bdef
/DD { [.5 dpi2point mul 4 dpi2point mul 6 dpi2point mul 4
  dpi2point mul] 0 setdash } bdef
% macros for lines and objects
/L {lineto stroke} bdef
/MP {3 1 roll moveto 1 sub {rlineto} repeat} bdef
/AP {{rlineto} repeat} bdef
/PDlw -1 def
/W {/PDlw currentlinewidth def setlinewidth} def
/PP {closepath eofill} bdef
/DP {closepath stroke} bdef
/MR {4 -2 roll moveto dup  0 exch rlineto exch 0 rlineto
  neg 0 exch rlineto closepath} bdef
/FR {MR stroke} bdef
/PR {MR fill} bdef
/L1i {{currentfile picstr readhexstring pop} image} bdef
/tMatrix matrix def
/MakeOval {newpath tMatrix currentmatrix pop translate scale
0 0 1 0 360 arc tMatrix setmatrix} bdef
/FO {MakeOval stroke} bdef
/PO {MakeOval fill} bdef
/PD {currentlinewidth 2 div 0 360 arc fill
   PDlw -1 eq not {PDlw w /PDlw -1 def} if} def
/FA {newpath tMatrix currentmatrix pop translate scale
  0 0 1 5 -2 roll arc tMatrix setmatrix stroke} bdef
/PA {newpath tMatrix currentmatrix pop	translate 0 0 moveto scale
  0 0 1 5 -2 roll arc closepath tMatrix setmatrix fill} bdef
/FAn {newpath tMatrix currentmatrix pop translate scale
  0 0 1 5 -2 roll arcn tMatrix setmatrix stroke} bdef
/PAn {newpath tMatrix currentmatrix pop translate 0 0 moveto scale
  0 0 1 5 -2 roll arcn closepath tMatrix setmatrix fill} bdef
/vradius 0 def /hradius 0 def /lry 0 def
/lrx 0 def /uly 0 def /ulx 0 def /rad 0 def
/MRR {/vradius xdef /hradius xdef /lry xdef /lrx xdef /uly xdef
  /ulx xdef newpath tMatrix currentmatrix pop ulx hradius add uly
  vradius add translate hradius vradius scale 0 0 1 180 270 arc 
  tMatrix setmatrix lrx hradius sub uly vradius add translate
  hradius vradius scale 0 0 1 270 360 arc tMatrix setmatrix
  lrx hradius sub lry vradius sub translate hradius vradius scale
  0 0 1 0 90 arc tMatrix setmatrix ulx hradius add lry vradius sub
  translate hradius vradius scale 0 0 1 90 180 arc tMatrix setmatrix
  closepath} bdef
/FRR {MRR stroke } bdef
/PRR {MRR fill } bdef
/MlrRR {/lry xdef /lrx xdef /uly xdef /ulx xdef /rad lry uly sub 2 div def
  newpath tMatrix currentmatrix pop ulx rad add uly rad add translate
  rad rad scale 0 0 1 90 270 arc tMatrix setmatrix lrx rad sub lry rad
  sub translate rad rad scale 0 0 1 270 90 arc tMatrix setmatrix
  closepath} bdef
/FlrRR {MlrRR stroke } bdef
/PlrRR {MlrRR fill } bdef
/MtbRR {/lry xdef /lrx xdef /uly xdef /ulx xdef /rad lrx ulx sub 2 div def
  newpath tMatrix currentmatrix pop ulx rad add uly rad add translate
  rad rad scale 0 0 1 180 360 arc tMatrix setmatrix lrx rad sub lry rad
  sub translate rad rad scale 0 0 1 0 180 arc tMatrix setmatrix
  closepath} bdef
/FtbRR {MtbRR stroke } bdef
/PtbRR {MtbRR fill } bdef
/stri 6 array def /dtri 6 array def
/smat 6 array def /dmat 6 array def
/tmat1 6 array def /tmat2 6 array def /dif 3 array def
/asub {/ind2 exch def /ind1 exch def dup dup
  ind1 get exch ind2 get sub exch } bdef
/tri_to_matrix {
  2 0 asub 3 1 asub 4 0 asub 5 1 asub
  dup 0 get exch 1 get 7 -1 roll astore } bdef
/compute_transform {
  dmat dtri tri_to_matrix tmat1 invertmatrix 
  smat stri tri_to_matrix tmat2 concatmatrix } bdef
/ds {stri astore pop} bdef
/dt {dtri astore pop} bdef
/db {2 copy /cols xdef /rows xdef mul dup 3 mul string
  currentfile 
  3 index 0 eq {/ASCIIHexDecode filter}
  {/ASCII85Decode filter 3 index 2 eq {/RunLengthDecode filter} if }
  ifelse exch readstring pop
  dup 0 3 index getinterval /rbmap xdef
  dup 2 index dup getinterval /gbmap xdef
  1 index dup 2 mul exch getinterval /bbmap xdef pop pop}bdef
/it {gs np dtri aload pop moveto lineto lineto cp c
  cols rows 8 compute_transform 
  rbmap gbmap bbmap true 3 colorimage gr}bdef
/il {newpath moveto lineto stroke}bdef
currentdict end def
%%EndProlog

%%BeginSetup
MathWorks begin

0 cap

end
%%EndSetup

%%Page: 1 1
%%BeginPageSetup
%%PageBoundingBox:    93   236   517   556
MathWorks begin
bpage
%%EndPageSetup

%%BeginObject: obj1
bplot

/dpi2point 12 def
portraitMode 1116 6672 csm

    0     0  5088  3840 rc
85 dict begin %Colortable dictionary
/c0 { 0.000000 0.000000 0.000000 sr} bdef
/c1 { 1.000000 1.000000 1.000000 sr} bdef
/c2 { 0.900000 0.000000 0.000000 sr} bdef
/c3 { 0.000000 0.820000 0.000000 sr} bdef
/c4 { 0.000000 0.000000 0.800000 sr} bdef
/c5 { 0.910000 0.820000 0.320000 sr} bdef
/c6 { 1.000000 0.260000 0.820000 sr} bdef
/c7 { 0.000000 0.820000 0.820000 sr} bdef
c0
1 j
1 sg
   0    0 5089 3841 rf
6 w
0 3130 3944 0 0 -3130 661 3418 4 MP
PP
-3944 0 0 3130 3944 0 0 -3130 661 3418 5 MP stroke
4 w
DO
SO
6 w
0 sg
 661 3418 mt 4605 3418 L
 661  288 mt 4605  288 L
 661 3418 mt  661  288 L
4605 3418 mt 4605  288 L
 661 3418 mt 4605 3418 L
 661 3418 mt  661  288 L
 661 3418 mt  661 3378 L
 661  288 mt  661  327 L
%%IncludeResource: font Helvetica
/Helvetica /ISOLatin1Encoding 120 FMSR

 628 3563 mt 
(0) s
1449 3418 mt 1449 3378 L
1449  288 mt 1449  327 L
1383 3563 mt 
(10) s
2238 3418 mt 2238 3378 L
2238  288 mt 2238  327 L
2172 3563 mt 
(20) s
3027 3418 mt 3027 3378 L
3027  288 mt 3027  327 L
2961 3563 mt 
(30) s
3816 3418 mt 3816 3378 L
3816  288 mt 3816  327 L
3750 3563 mt 
(40) s
4605 3418 mt 4605 3378 L
4605  288 mt 4605  327 L
4539 3563 mt 
(50) s
 661 3418 mt  700 3418 L
4605 3418 mt 4565 3418 L
 560 3462 mt 
(0) s
 661 3026 mt  700 3026 L
4605 3026 mt 4565 3026 L
 393 3070 mt 
(0.05) s
 661 2635 mt  700 2635 L
4605 2635 mt 4565 2635 L
 460 2679 mt 
(0.1) s
 661 2244 mt  700 2244 L
4605 2244 mt 4565 2244 L
 393 2288 mt 
(0.15) s
 661 1853 mt  700 1853 L
4605 1853 mt 4565 1853 L
 460 1897 mt 
(0.2) s
 661 1461 mt  700 1461 L
4605 1461 mt 4565 1461 L
 393 1505 mt 
(0.25) s
 661 1070 mt  700 1070 L
4605 1070 mt 4565 1070 L
 460 1114 mt 
(0.3) s
 661  679 mt  700  679 L
4605  679 mt 4565  679 L
 393  723 mt 
(0.35) s
 661  288 mt  700  288 L
4605  288 mt 4565  288 L
 460  332 mt 
(0.4) s
 661 3418 mt 4605 3418 L
 661  288 mt 4605  288 L
 661 3418 mt  661  288 L
4605 3418 mt 4605  288 L
gs 661 288 3945 3131 rc
24 w
/c8 { 0.000000 0.000000 1.000000 sr} bdef
c8
1184 0 1183 0 394 0 474 -1 315 0 158 0 158 -1 78 0 
661 3417 9 MP stroke
/c9 { 0.000000 0.500000 0.000000 sr} bdef
c9
1184 -53 1183 -103 394 -63 474 -135 315 -191 158 -193 158 -433 78 -240 
661 3417 9 MP stroke
/c10 { 1.000000 0.000000 0.000000 sr} bdef
c10
1184 -127 1183 -219 394 -123 474 -242 315 -314 158 -300 158 -623 78 -301 
661 3417 9 MP stroke
/c11 { 0.000000 0.750000 0.750000 sr} bdef
c11
1184 -117 1183 -228 394 -140 474 -294 315 -411 158 -409 158 -854 78 -391 
661 3417 9 MP stroke
gr

24 w
c11
0 sg
1527  193 mt 
(North German Basin with confining layers) s
2323 3706 mt 
(time [years]) s
 257 2667 mt  -90 rotate
(massflow / injection rate q) s
90 rotate
%%IncludeResource: font Helvetica
/Helvetica /ISOLatin1Encoding 96 FMSR

 317 1290 mt  -90 rotate
(l) s
90 rotate
 317 1269 mt  -90 rotate
(D) s
90 rotate
%%IncludeResource: font Helvetica
/Helvetica /ISOLatin1Encoding 120 FMSR

 257 1200 mt  -90 rotate
( [-]) s
90 rotate
 644 3461 mt 
( ) s
4589  330 mt 
( ) s
6 w
1 sg
0 626 1700 0 0 -626 2846 3359 4 MP
PP
-1700 0 0 626 1700 0 0 -626 2846 3359 5 MP stroke
4 w
DO
SO
6 w
0 sg
2846 3359 mt 4546 3359 L
2846 2733 mt 4546 2733 L
2846 3359 mt 2846 2733 L
4546 3359 mt 4546 2733 L
2846 3359 mt 4546 3359 L
2846 3359 mt 2846 2733 L
2846 3359 mt 4546 3359 L
2846 2733 mt 4546 2733 L
2846 3359 mt 2846 2733 L
4546 3359 mt 4546 2733 L
3305 2865 mt 
(Oberer Mittl Buntss 2  ) s
gs 2846 2733 1701 627 rc
24 w
c8
353 0 2916 2823 2 MP stroke
gr

24 w
c8
0 sg
3305 3014 mt 
(Kreide ) s
gs 2846 2733 1701 627 rc
c9
353 0 2916 2971 2 MP stroke
gr

c9
0 sg
3305 3163 mt 
(Oligoz\303\244n) s
gs 2846 2733 1701 627 rc
c10
353 0 2916 3120 2 MP stroke
gr

c10
0 sg
3305 3312 mt 
(Mioz\303\244n) s
gs 2846 2733 1701 627 rc
c11
353 0 2916 3268 2 MP stroke
6 w
gr

6 w
c11

end %%Color Dict

eplot
%%EndObject

epage
end

showpage

%%Trailer
%%EOF
