%!PS-Adobe-3.0 EPSF-3.0
%%Creator: MATLAB, The MathWorks, Inc. Version 8.3.0.532 (R2014a). Operating System: Linux 3.7.10-1.40-desktop #1 SMP PREEMPT Thu Jul 10 11:22:12 UTC 2014 (9b06319) x86_64.
%%Title: /home/student/2014/scholz/Dokumente/final data/multilayer_new_comp_final.eps
%%CreationDate: 11/10/2014  18:06:43
%%DocumentNeededFonts: Helvetica
%%DocumentProcessColors: Cyan Magenta Yellow Black
%%LanguageLevel: 2
%%Pages: 1
%%BoundingBox:    78   206   533   586
%%EndComments

%%BeginProlog
% MathWorks dictionary
/MathWorks 160 dict begin
% definition operators
/bdef {bind def} bind def
/ldef {load def} bind def
/xdef {exch def} bdef
/xstore {exch store} bdef
% operator abbreviations
/c  /clip ldef
/cc /concat ldef
/cp /closepath ldef
/gr /grestore ldef
/gs /gsave ldef
/mt /moveto ldef
/np /newpath ldef
/cm /currentmatrix ldef
/sm /setmatrix ldef
/rm /rmoveto ldef
/rl /rlineto ldef
/s {show newpath} bdef
/sc {setcmykcolor} bdef
/sr /setrgbcolor ldef
/sg /setgray ldef
/w /setlinewidth ldef
/j /setlinejoin ldef
/cap /setlinecap ldef
/rc {rectclip} bdef
/rf {rectfill} bdef
% page state control
/pgsv () def
/bpage {/pgsv save def} bdef
/epage {pgsv restore} bdef
/bplot /gsave ldef
/eplot {stroke grestore} bdef
% orientation switch
/portraitMode 0 def /landscapeMode 1 def /rotateMode 2 def
% coordinate system mappings
/dpi2point 0 def
% font control
/FontSize 0 def
/FMS {/FontSize xstore findfont [FontSize 0 0 FontSize neg 0 0]
  makefont setfont} bdef
/reencode {exch dup where {pop load} {pop StandardEncoding} ifelse
  exch dup 3 1 roll findfont dup length dict begin
  { 1 index /FID ne {def}{pop pop} ifelse } forall
  /Encoding exch def currentdict end definefont pop} bdef
/isroman {findfont /CharStrings get /Agrave known} bdef
/FMSR {3 1 roll 1 index dup isroman {reencode} {pop pop} ifelse
  exch FMS} bdef
/csm {1 dpi2point div -1 dpi2point div scale neg translate
 dup landscapeMode eq {pop -90 rotate}
  {rotateMode eq {90 rotate} if} ifelse} bdef
% line types: solid, dotted, dashed, dotdash
/SO { [] 0 setdash } bdef
/DO { [.5 dpi2point mul 4 dpi2point mul] 0 setdash } bdef
/DA { [6 dpi2point mul] 0 setdash } bdef
/DD { [.5 dpi2point mul 4 dpi2point mul 6 dpi2point mul 4
  dpi2point mul] 0 setdash } bdef
% macros for lines and objects
/L {lineto stroke} bdef
/MP {3 1 roll moveto 1 sub {rlineto} repeat} bdef
/AP {{rlineto} repeat} bdef
/PDlw -1 def
/W {/PDlw currentlinewidth def setlinewidth} def
/PP {closepath eofill} bdef
/DP {closepath stroke} bdef
/MR {4 -2 roll moveto dup  0 exch rlineto exch 0 rlineto
  neg 0 exch rlineto closepath} bdef
/FR {MR stroke} bdef
/PR {MR fill} bdef
/L1i {{currentfile picstr readhexstring pop} image} bdef
/tMatrix matrix def
/MakeOval {newpath tMatrix currentmatrix pop translate scale
0 0 1 0 360 arc tMatrix setmatrix} bdef
/FO {MakeOval stroke} bdef
/PO {MakeOval fill} bdef
/PD {currentlinewidth 2 div 0 360 arc fill
   PDlw -1 eq not {PDlw w /PDlw -1 def} if} def
/FA {newpath tMatrix currentmatrix pop translate scale
  0 0 1 5 -2 roll arc tMatrix setmatrix stroke} bdef
/PA {newpath tMatrix currentmatrix pop	translate 0 0 moveto scale
  0 0 1 5 -2 roll arc closepath tMatrix setmatrix fill} bdef
/FAn {newpath tMatrix currentmatrix pop translate scale
  0 0 1 5 -2 roll arcn tMatrix setmatrix stroke} bdef
/PAn {newpath tMatrix currentmatrix pop translate 0 0 moveto scale
  0 0 1 5 -2 roll arcn closepath tMatrix setmatrix fill} bdef
/vradius 0 def /hradius 0 def /lry 0 def
/lrx 0 def /uly 0 def /ulx 0 def /rad 0 def
/MRR {/vradius xdef /hradius xdef /lry xdef /lrx xdef /uly xdef
  /ulx xdef newpath tMatrix currentmatrix pop ulx hradius add uly
  vradius add translate hradius vradius scale 0 0 1 180 270 arc 
  tMatrix setmatrix lrx hradius sub uly vradius add translate
  hradius vradius scale 0 0 1 270 360 arc tMatrix setmatrix
  lrx hradius sub lry vradius sub translate hradius vradius scale
  0 0 1 0 90 arc tMatrix setmatrix ulx hradius add lry vradius sub
  translate hradius vradius scale 0 0 1 90 180 arc tMatrix setmatrix
  closepath} bdef
/FRR {MRR stroke } bdef
/PRR {MRR fill } bdef
/MlrRR {/lry xdef /lrx xdef /uly xdef /ulx xdef /rad lry uly sub 2 div def
  newpath tMatrix currentmatrix pop ulx rad add uly rad add translate
  rad rad scale 0 0 1 90 270 arc tMatrix setmatrix lrx rad sub lry rad
  sub translate rad rad scale 0 0 1 270 90 arc tMatrix setmatrix
  closepath} bdef
/FlrRR {MlrRR stroke } bdef
/PlrRR {MlrRR fill } bdef
/MtbRR {/lry xdef /lrx xdef /uly xdef /ulx xdef /rad lrx ulx sub 2 div def
  newpath tMatrix currentmatrix pop ulx rad add uly rad add translate
  rad rad scale 0 0 1 180 360 arc tMatrix setmatrix lrx rad sub lry rad
  sub translate rad rad scale 0 0 1 0 180 arc tMatrix setmatrix
  closepath} bdef
/FtbRR {MtbRR stroke } bdef
/PtbRR {MtbRR fill } bdef
/stri 6 array def /dtri 6 array def
/smat 6 array def /dmat 6 array def
/tmat1 6 array def /tmat2 6 array def /dif 3 array def
/asub {/ind2 exch def /ind1 exch def dup dup
  ind1 get exch ind2 get sub exch } bdef
/tri_to_matrix {
  2 0 asub 3 1 asub 4 0 asub 5 1 asub
  dup 0 get exch 1 get 7 -1 roll astore } bdef
/compute_transform {
  dmat dtri tri_to_matrix tmat1 invertmatrix 
  smat stri tri_to_matrix tmat2 concatmatrix } bdef
/ds {stri astore pop} bdef
/dt {dtri astore pop} bdef
/db {2 copy /cols xdef /rows xdef mul dup 3 mul string
  currentfile 
  3 index 0 eq {/ASCIIHexDecode filter}
  {/ASCII85Decode filter 3 index 2 eq {/RunLengthDecode filter} if }
  ifelse exch readstring pop
  dup 0 3 index getinterval /rbmap xdef
  dup 2 index dup getinterval /gbmap xdef
  1 index dup 2 mul exch getinterval /bbmap xdef pop pop}bdef
/it {gs np dtri aload pop moveto lineto lineto cp c
  cols rows 8 compute_transform 
  rbmap gbmap bbmap true 3 colorimage gr}bdef
/il {newpath moveto lineto stroke}bdef
currentdict end def
%%EndProlog

%%BeginSetup
MathWorks begin

0 cap

end
%%EndSetup

%%Page: 1 1
%%BeginPageSetup
%%PageBoundingBox:    78   206   533   586
MathWorks begin
bpage
%%EndPageSetup

%%BeginObject: obj1
bplot

/dpi2point 12 def
portraitMode 0936 7032 csm

    0     0  5463  4560 rc
86 dict begin %Colortable dictionary
/c0 { 0.000000 0.000000 0.000000 sr} bdef
/c1 { 1.000000 1.000000 1.000000 sr} bdef
/c2 { 0.900000 0.000000 0.000000 sr} bdef
/c3 { 0.000000 0.820000 0.000000 sr} bdef
/c4 { 0.000000 0.000000 0.800000 sr} bdef
/c5 { 0.910000 0.820000 0.320000 sr} bdef
/c6 { 1.000000 0.260000 0.820000 sr} bdef
/c7 { 0.000000 0.820000 0.820000 sr} bdef
c0
1 j
1 sg
   0    0 5464 4561 rf
6 w
0 3717 3717 0 0 -3717 968 4058 4 MP
PP
-3717 0 0 3717 3717 0 0 -3717 968 4058 5 MP stroke
4 w
DO
SO
6 w
0 sg
 968 4058 mt 4685 4058 L
 968  341 mt 4685  341 L
 968 4058 mt  968  341 L
4685 4058 mt 4685  341 L
 968 4058 mt 4685 4058 L
 968 4058 mt  968  341 L
 968 4058 mt  968 4020 L
 968  341 mt  968  379 L
%%IncludeResource: font Helvetica
/Helvetica /ISOLatin1Encoding 120 FMSR

 935 4203 mt 
(0) s
1712 4058 mt 1712 4020 L
1712  341 mt 1712  379 L
1646 4203 mt 
(20) s
2455 4058 mt 2455 4020 L
2455  341 mt 2455  379 L
2389 4203 mt 
(40) s
3198 4058 mt 3198 4020 L
3198  341 mt 3198  379 L
3132 4203 mt 
(60) s
3941 4058 mt 3941 4020 L
3941  341 mt 3941  379 L
3875 4203 mt 
(80) s
4685 4058 mt 4685 4020 L
4685  341 mt 4685  379 L
4585 4203 mt 
(100) s
 968 4058 mt 1006 4058 L
4685 4058 mt 4647 4058 L
 868 4102 mt 
(0) s
 968 3686 mt 1006 3686 L
4685 3686 mt 4647 3686 L
 768 3730 mt 
(0.1) s
 968 3314 mt 1006 3314 L
4685 3314 mt 4647 3314 L
 768 3358 mt 
(0.2) s
 968 2943 mt 1006 2943 L
4685 2943 mt 4647 2943 L
 768 2987 mt 
(0.3) s
 968 2571 mt 1006 2571 L
4685 2571 mt 4647 2571 L
 768 2615 mt 
(0.4) s
 968 2200 mt 1006 2200 L
4685 2200 mt 4647 2200 L
 768 2244 mt 
(0.5) s
 968 1828 mt 1006 1828 L
4685 1828 mt 4647 1828 L
 768 1872 mt 
(0.6) s
 968 1456 mt 1006 1456 L
4685 1456 mt 4647 1456 L
 768 1500 mt 
(0.7) s
 968 1085 mt 1006 1085 L
4685 1085 mt 4647 1085 L
 768 1129 mt 
(0.8) s
 968  713 mt 1006  713 L
4685  713 mt 4647  713 L
 768  757 mt 
(0.9) s
 968  341 mt 1006  341 L
4685  341 mt 4647  341 L
 868  385 mt 
(1) s
 968 4058 mt 4685 4058 L
 968  341 mt 4685  341 L
 968 4058 mt  968  341 L
4685 4058 mt 4685  341 L
gs 968 341 3718 3718 rc
24 w
/c8 { 0.000000 0.000000 1.000000 sr} bdef
c8
184 25 188 38 184 55 188 83 184 121 187 185 184 275 188 418 
184 578 187 634 184 -23 188 -34 184 -49 188 -73 187 -109 184 -159 
72 -93 184 -286 116 -275 57 -179 116 -421 73 -335 46 -222 30 -123 
18 -58 12 -22 7 -7 5 -2 3 0 2 0 1 0 1 -1 
1 0 968 4058 34 MP stroke
gr

24 w
c8
0 sg
1763  246 mt 
(Flux into shallow aquifers along salt wall) s
 632 3444 mt  -90 rotate
(Mass Flow Rate q) s
90 rotate
%%IncludeResource: font Helvetica
/Helvetica /ISOLatin1Encoding 96 FMSR

 692 2486 mt  -90 rotate
(l) s
90 rotate
%%IncludeResource: font Helvetica
/Helvetica /ISOLatin1Encoding 120 FMSR

 632 2465 mt  -90 rotate
( / Injection Rate q) s
90 rotate
%%IncludeResource: font Helvetica
/Helvetica /ISOLatin1Encoding 96 FMSR

 692 1532 mt  -90 rotate
(inj) s
90 rotate
%%IncludeResource: font Helvetica
/Helvetica /ISOLatin1Encoding 120 FMSR

 632 1436 mt  -90 rotate
( = q) s
90 rotate
%%IncludeResource: font Helvetica
/Helvetica /ISOLatin1Encoding 96 FMSR

 692 1233 mt  -90 rotate
(lD) s
90 rotate
%%IncludeResource: font Helvetica
/Helvetica /ISOLatin1Encoding 120 FMSR

 632 1143 mt  -90 rotate
(  [-]) s
90 rotate
2497 4346 mt 
(Time [years]) s
gs 968 341 3718 3718 rc
/c9 { 1.000000 0.000000 0.000000 sr} bdef
c9
372 -105 372 -153 186 -107 185 -142 75 -71 111 -130 112 -169 74 -147 
37 -88 37 -100 37 -117 38 -137 37 -163 37 -199 37 -245 37 -301 
19 -163 18 -149 19 -80 9 -4 9 0 969 4057 22 MP stroke
/c10 { 0.000000 0.498039 0.000000 sr} bdef
c10
372 -61 372 -88 186 -62 185 -82 75 -41 111 -74 112 -98 74 -85 
37 -51 37 -58 37 -68 38 -79 37 -95 37 -116 37 -143 37 -177 
19 -97 18 -89 19 -48 9 -3 9 0 969 4057 22 MP stroke
gr

c10
0 sg
 951 4101 mt 
( ) s
4669  383 mt 
( ) s
6 w
1 sg
0 518 1667 0 0 -518 2958 919 4 MP
PP
-1667 0 0 518 1667 0 0 -518 2958 919 5 MP stroke
4 w
DO
SO
6 w
0 sg
2958  919 mt 4625  919 L
2958  401 mt 4625  401 L
2958  919 mt 2958  401 L
4625  919 mt 4625  401 L
2958  919 mt 4625  919 L
2958  919 mt 2958  401 L
2958  919 mt 4625  919 L
2958  401 mt 4625  401 L
2958  919 mt 2958  401 L
4625  919 mt 4625  401 L
3414  565 mt 
(DuMu) s
%%IncludeResource: font Helvetica
/Helvetica /ISOLatin1Encoding 96 FMSR

3734  505 mt 
(X) s
%%IncludeResource: font Helvetica
/Helvetica /ISOLatin1Encoding 120 FMSR

3798  565 mt 
( constant head) s
gs 2958 401 1668 519 rc
24 w
c8
350 0 3028 510 2 MP stroke
gr

24 w
c8
0 sg
3414  721 mt 
(Analytical Dirichlet) s
gs 2958 401 1668 519 rc
c9
350 0 3028 678 2 MP stroke
gr

c9
0 sg
3414  871 mt 
(Analytical Neumann) s
gs 2958 401 1668 519 rc
c10
350 0 3028 828 2 MP stroke
6 w
gr

6 w
c10

end %%Color Dict

eplot
%%EndObject

epage
end

showpage

%%Trailer
%%EOF
