%!PS-Adobe-3.0 EPSF-3.0
%%Creator: MATLAB, The MathWorks, Inc. Version 8.1.0.604 (R2013a). Operating System: Darwin 13.4.0 Darwin Kernel Version 13.4.0: Sun Aug 17 19:50:11 PDT 2014; root:xnu-2422.115.4~1/RELEASE_X86_64 x86_64.
%%Title: /Volumes/Macintosh HD/Users/simonscholz/Documents/Uni/6. Semester/Bachelorthesis/finale Version/20141208/Dokumente/Data_CD/multilayer/plots/Faultleakage_final_commented_multi_1_compare.eps
%%CreationDate: 12/08/2014  21:21:17
%%DocumentNeededFonts: Helvetica
%%DocumentProcessColors: Cyan Magenta Yellow Black
%%LanguageLevel: 2
%%Pages: 1
%%BoundingBox:    15   187   579   653
%%EndComments

%%BeginProlog
% MathWorks dictionary
/MathWorks 160 dict begin
% definition operators
/bdef {bind def} bind def
/ldef {load def} bind def
/xdef {exch def} bdef
/xstore {exch store} bdef
% operator abbreviations
/c  /clip ldef
/cc /concat ldef
/cp /closepath ldef
/gr /grestore ldef
/gs /gsave ldef
/mt /moveto ldef
/np /newpath ldef
/cm /currentmatrix ldef
/sm /setmatrix ldef
/rm /rmoveto ldef
/rl /rlineto ldef
/s {show newpath} bdef
/sc {setcmykcolor} bdef
/sr /setrgbcolor ldef
/sg /setgray ldef
/w /setlinewidth ldef
/j /setlinejoin ldef
/cap /setlinecap ldef
/rc {rectclip} bdef
/rf {rectfill} bdef
% page state control
/pgsv () def
/bpage {/pgsv save def} bdef
/epage {pgsv restore} bdef
/bplot /gsave ldef
/eplot {stroke grestore} bdef
% orientation switch
/portraitMode 0 def /landscapeMode 1 def /rotateMode 2 def
% coordinate system mappings
/dpi2point 0 def
% font control
/FontSize 0 def
/FMS {/FontSize xstore findfont [FontSize 0 0 FontSize neg 0 0]
  makefont setfont} bdef
/reencode {exch dup where {pop load} {pop StandardEncoding} ifelse
  exch dup 3 1 roll findfont dup length dict begin
  { 1 index /FID ne {def}{pop pop} ifelse } forall
  /Encoding exch def currentdict end definefont pop} bdef
/isroman {findfont /CharStrings get /Agrave known} bdef
/FMSR {3 1 roll 1 index dup isroman {reencode} {pop pop} ifelse
  exch FMS} bdef
/csm {1 dpi2point div -1 dpi2point div scale neg translate
 dup landscapeMode eq {pop -90 rotate}
  {rotateMode eq {90 rotate} if} ifelse} bdef
% line types: solid, dotted, dashed, dotdash
/SO { [] 0 setdash } bdef
/DO { [.5 dpi2point mul 4 dpi2point mul] 0 setdash } bdef
/DA { [6 dpi2point mul] 0 setdash } bdef
/DD { [.5 dpi2point mul 4 dpi2point mul 6 dpi2point mul 4
  dpi2point mul] 0 setdash } bdef
% macros for lines and objects
/L {lineto stroke} bdef
/MP {3 1 roll moveto 1 sub {rlineto} repeat} bdef
/AP {{rlineto} repeat} bdef
/PDlw -1 def
/W {/PDlw currentlinewidth def setlinewidth} def
/PP {closepath eofill} bdef
/DP {closepath stroke} bdef
/MR {4 -2 roll moveto dup  0 exch rlineto exch 0 rlineto
  neg 0 exch rlineto closepath} bdef
/FR {MR stroke} bdef
/PR {MR fill} bdef
/L1i {{currentfile picstr readhexstring pop} image} bdef
/tMatrix matrix def
/MakeOval {newpath tMatrix currentmatrix pop translate scale
0 0 1 0 360 arc tMatrix setmatrix} bdef
/FO {MakeOval stroke} bdef
/PO {MakeOval fill} bdef
/PD {currentlinewidth 2 div 0 360 arc fill
   PDlw -1 eq not {PDlw w /PDlw -1 def} if} def
/FA {newpath tMatrix currentmatrix pop translate scale
  0 0 1 5 -2 roll arc tMatrix setmatrix stroke} bdef
/PA {newpath tMatrix currentmatrix pop	translate 0 0 moveto scale
  0 0 1 5 -2 roll arc closepath tMatrix setmatrix fill} bdef
/FAn {newpath tMatrix currentmatrix pop translate scale
  0 0 1 5 -2 roll arcn tMatrix setmatrix stroke} bdef
/PAn {newpath tMatrix currentmatrix pop translate 0 0 moveto scale
  0 0 1 5 -2 roll arcn closepath tMatrix setmatrix fill} bdef
/vradius 0 def /hradius 0 def /lry 0 def
/lrx 0 def /uly 0 def /ulx 0 def /rad 0 def
/MRR {/vradius xdef /hradius xdef /lry xdef /lrx xdef /uly xdef
  /ulx xdef newpath tMatrix currentmatrix pop ulx hradius add uly
  vradius add translate hradius vradius scale 0 0 1 180 270 arc 
  tMatrix setmatrix lrx hradius sub uly vradius add translate
  hradius vradius scale 0 0 1 270 360 arc tMatrix setmatrix
  lrx hradius sub lry vradius sub translate hradius vradius scale
  0 0 1 0 90 arc tMatrix setmatrix ulx hradius add lry vradius sub
  translate hradius vradius scale 0 0 1 90 180 arc tMatrix setmatrix
  closepath} bdef
/FRR {MRR stroke } bdef
/PRR {MRR fill } bdef
/MlrRR {/lry xdef /lrx xdef /uly xdef /ulx xdef /rad lry uly sub 2 div def
  newpath tMatrix currentmatrix pop ulx rad add uly rad add translate
  rad rad scale 0 0 1 90 270 arc tMatrix setmatrix lrx rad sub lry rad
  sub translate rad rad scale 0 0 1 270 90 arc tMatrix setmatrix
  closepath} bdef
/FlrRR {MlrRR stroke } bdef
/PlrRR {MlrRR fill } bdef
/MtbRR {/lry xdef /lrx xdef /uly xdef /ulx xdef /rad lrx ulx sub 2 div def
  newpath tMatrix currentmatrix pop ulx rad add uly rad add translate
  rad rad scale 0 0 1 180 360 arc tMatrix setmatrix lrx rad sub lry rad
  sub translate rad rad scale 0 0 1 0 180 arc tMatrix setmatrix
  closepath} bdef
/FtbRR {MtbRR stroke } bdef
/PtbRR {MtbRR fill } bdef
/stri 6 array def /dtri 6 array def
/smat 6 array def /dmat 6 array def
/tmat1 6 array def /tmat2 6 array def /dif 3 array def
/asub {/ind2 exch def /ind1 exch def dup dup
  ind1 get exch ind2 get sub exch } bdef
/tri_to_matrix {
  2 0 asub 3 1 asub 4 0 asub 5 1 asub
  dup 0 get exch 1 get 7 -1 roll astore } bdef
/compute_transform {
  dmat dtri tri_to_matrix tmat1 invertmatrix 
  smat stri tri_to_matrix tmat2 concatmatrix } bdef
/ds {stri astore pop} bdef
/dt {dtri astore pop} bdef
/db {2 copy /cols xdef /rows xdef mul dup 3 mul string
  currentfile 
  3 index 0 eq {/ASCIIHexDecode filter}
  {/ASCII85Decode filter 3 index 2 eq {/RunLengthDecode filter} if }
  ifelse exch readstring pop
  dup 0 3 index getinterval /rbmap xdef
  dup 2 index dup getinterval /gbmap xdef
  1 index dup 2 mul exch getinterval /bbmap xdef pop pop}bdef
/it {gs np dtri aload pop moveto lineto lineto cp c
  cols rows 8 compute_transform 
  rbmap gbmap bbmap true 3 colorimage gr}bdef
/il {newpath moveto lineto stroke}bdef
currentdict end def
%%EndProlog

%%BeginSetup
MathWorks begin

0 cap

end
%%EndSetup

%%Page: 1 1
%%BeginPageSetup
%%PageBoundingBox:    15   187   579   653
MathWorks begin
bpage
%%EndPageSetup

%%BeginObject: obj1
bplot

/dpi2point 12 def
portraitMode 0180 7836 csm

    0     0  6771  5586 rc
86 dict begin %Colortable dictionary
/c0 { 0.000000 0.000000 0.000000 sr} bdef
/c1 { 1.000000 1.000000 1.000000 sr} bdef
/c2 { 0.900000 0.000000 0.000000 sr} bdef
/c3 { 0.000000 0.820000 0.000000 sr} bdef
/c4 { 0.000000 0.000000 0.800000 sr} bdef
/c5 { 0.910000 0.820000 0.320000 sr} bdef
/c6 { 1.000000 0.260000 0.820000 sr} bdef
/c7 { 0.000000 0.820000 0.820000 sr} bdef
c0
1 j
1 sg
   0    0 6772 5587 rf
6 w
0 4553 5249 0 0 -4553 879 4972 4 MP
PP
-5249 0 0 4553 5249 0 0 -4553 879 4972 5 MP stroke
4 w
DO
SO
6 w
0 sg
 879 4972 mt 6128 4972 L
 879  419 mt 6128  419 L
 879 4972 mt  879  419 L
6128 4972 mt 6128  419 L
 879 4972 mt 6128 4972 L
 879 4972 mt  879  419 L
 879 4972 mt  879 4945 L
 879  419 mt  879  445 L
 879 4972 mt  879 4919 L
 879  419 mt  879  471 L
%%IncludeResource: font Helvetica
/Helvetica /ISOLatin1Encoding 120 FMSR

 767 5154 mt 
(10) s
%%IncludeResource: font Helvetica
/Helvetica /ISOLatin1Encoding 80 FMSR

 900 5080 mt 
(-3) s
1195 4972 mt 1195 4945 L
1195  419 mt 1195  445 L
1380 4972 mt 1380 4945 L
1380  419 mt 1380  445 L
1511 4972 mt 1511 4945 L
1511  419 mt 1511  445 L
1613 4972 mt 1613 4945 L
1613  419 mt 1613  445 L
1696 4972 mt 1696 4945 L
1696  419 mt 1696  445 L
1767 4972 mt 1767 4945 L
1767  419 mt 1767  445 L
1827 4972 mt 1827 4945 L
1827  419 mt 1827  445 L
1881 4972 mt 1881 4945 L
1881  419 mt 1881  445 L
1929 4972 mt 1929 4945 L
1929  419 mt 1929  445 L
1929 4972 mt 1929 4919 L
1929  419 mt 1929  471 L
%%IncludeResource: font Helvetica
/Helvetica /ISOLatin1Encoding 120 FMSR

1817 5154 mt 
(10) s
%%IncludeResource: font Helvetica
/Helvetica /ISOLatin1Encoding 80 FMSR

1950 5080 mt 
(-2) s
2245 4972 mt 2245 4945 L
2245  419 mt 2245  445 L
2430 4972 mt 2430 4945 L
2430  419 mt 2430  445 L
2561 4972 mt 2561 4945 L
2561  419 mt 2561  445 L
2663 4972 mt 2663 4945 L
2663  419 mt 2663  445 L
2746 4972 mt 2746 4945 L
2746  419 mt 2746  445 L
2816 4972 mt 2816 4945 L
2816  419 mt 2816  445 L
2877 4972 mt 2877 4945 L
2877  419 mt 2877  445 L
2931 4972 mt 2931 4945 L
2931  419 mt 2931  445 L
2979 4972 mt 2979 4945 L
2979  419 mt 2979  445 L
2979 4972 mt 2979 4919 L
2979  419 mt 2979  471 L
%%IncludeResource: font Helvetica
/Helvetica /ISOLatin1Encoding 120 FMSR

2867 5154 mt 
(10) s
%%IncludeResource: font Helvetica
/Helvetica /ISOLatin1Encoding 80 FMSR

3000 5080 mt 
(-1) s
3295 4972 mt 3295 4945 L
3295  419 mt 3295  445 L
3479 4972 mt 3479 4945 L
3479  419 mt 3479  445 L
3611 4972 mt 3611 4945 L
3611  419 mt 3611  445 L
3712 4972 mt 3712 4945 L
3712  419 mt 3712  445 L
3795 4972 mt 3795 4945 L
3795  419 mt 3795  445 L
3866 4972 mt 3866 4945 L
3866  419 mt 3866  445 L
3927 4972 mt 3927 4945 L
3927  419 mt 3927  445 L
3980 4972 mt 3980 4945 L
3980  419 mt 3980  445 L
4028 4972 mt 4028 4945 L
4028  419 mt 4028  445 L
4028 4972 mt 4028 4919 L
4028  419 mt 4028  471 L
%%IncludeResource: font Helvetica
/Helvetica /ISOLatin1Encoding 120 FMSR

3940 5154 mt 
(10) s
%%IncludeResource: font Helvetica
/Helvetica /ISOLatin1Encoding 80 FMSR

4073 5080 mt 
(0) s
4344 4972 mt 4344 4945 L
4344  419 mt 4344  445 L
4529 4972 mt 4529 4945 L
4529  419 mt 4529  445 L
4660 4972 mt 4660 4945 L
4660  419 mt 4660  445 L
4762 4972 mt 4762 4945 L
4762  419 mt 4762  445 L
4845 4972 mt 4845 4945 L
4845  419 mt 4845  445 L
4915 4972 mt 4915 4945 L
4915  419 mt 4915  445 L
4976 4972 mt 4976 4945 L
4976  419 mt 4976  445 L
5030 4972 mt 5030 4945 L
5030  419 mt 5030  445 L
5078 4972 mt 5078 4945 L
5078  419 mt 5078  445 L
5078 4972 mt 5078 4919 L
5078  419 mt 5078  471 L
%%IncludeResource: font Helvetica
/Helvetica /ISOLatin1Encoding 120 FMSR

4990 5154 mt 
(10) s
%%IncludeResource: font Helvetica
/Helvetica /ISOLatin1Encoding 80 FMSR

5123 5080 mt 
(1) s
5394 4972 mt 5394 4945 L
5394  419 mt 5394  445 L
5579 4972 mt 5579 4945 L
5579  419 mt 5579  445 L
5710 4972 mt 5710 4945 L
5710  419 mt 5710  445 L
5812 4972 mt 5812 4945 L
5812  419 mt 5812  445 L
5895 4972 mt 5895 4945 L
5895  419 mt 5895  445 L
5965 4972 mt 5965 4945 L
5965  419 mt 5965  445 L
6026 4972 mt 6026 4945 L
6026  419 mt 6026  445 L
6079 4972 mt 6079 4945 L
6079  419 mt 6079  445 L
6128 4972 mt 6128 4945 L
6128  419 mt 6128  445 L
6128 4972 mt 6128 4919 L
6128  419 mt 6128  471 L
%%IncludeResource: font Helvetica
/Helvetica /ISOLatin1Encoding 120 FMSR

6040 5154 mt 
(10) s
%%IncludeResource: font Helvetica
/Helvetica /ISOLatin1Encoding 80 FMSR

6173 5080 mt 
(2) s
 879 4972 mt  932 4972 L
6128 4972 mt 6075 4972 L
%%IncludeResource: font Helvetica
/Helvetica /ISOLatin1Encoding 120 FMSR

 779 5016 mt 
(0) s
 879 4213 mt  932 4213 L
6128 4213 mt 6075 4213 L
 612 4257 mt 
(0.05) s
 879 3454 mt  932 3454 L
6128 3454 mt 6075 3454 L
 679 3498 mt 
(0.1) s
 879 2696 mt  932 2696 L
6128 2696 mt 6075 2696 L
 612 2740 mt 
(0.15) s
 879 1937 mt  932 1937 L
6128 1937 mt 6075 1937 L
 679 1981 mt 
(0.2) s
 879 1179 mt  932 1179 L
6128 1179 mt 6075 1179 L
 612 1223 mt 
(0.25) s
 879  420 mt  932  420 L
6128  420 mt 6075  420 L
 679  464 mt 
(0.3) s
 879 4972 mt 6128 4972 L
 879  419 mt 6128  419 L
 879 4972 mt  879  419 L
6128 4972 mt 6128  419 L
gs 879 419 5250 4554 rc
24 w
/c8 { 0.000000 0.000000 1.000000 sr} bdef
c8
181 -21 181 2 181 21 181 21 181 -5 181 -36 181 -67 181 -99 
181 -129 181 -155 181 -178 181 -194 181 -206 181 -211 181 -209 181 -203 
181 -192 181 -178 181 -162 181 -145 181 -128 181 -111 181 -96 181 -81 
181 -69 181 -57 181 -46 181 -38 181 -30 879 4906 30 MP stroke
/c9 { 0.000000 0.498039 0.000000 sr} bdef
c9
181 -46 181 -38 181 -30 181 -22 181 -14 181 -10 181 -5 181 -3 
181 -1 181 -1 181 0 181 0 181 0 181 0 181 0 181 0 
181 0 181 0 181 0 181 0 181 0 181 0 181 0 181 0 
181 0 181 0 181 0 181 0 181 -1 879 4972 30 MP stroke
/c10 { 1.000000 0.000000 0.000000 sr} bdef
c10
181 -5 181 -2 181 -1 181 0 181 0 181 0 181 0 181 0 
181 0 181 0 181 0 181 0 181 0 181 0 181 0 181 0 
181 0 181 -1 181 0 181 0 181 0 181 0 181 0 181 0 
181 0 181 0 181 0 181 0 181 0 879 4972 30 MP stroke
gr

24 w
c10
0 sg
3170 5297 mt 
(Time [Years]) s
 476 3724 mt  -90 rotate
(Leakage q) s
90 rotate
%%IncludeResource: font Helvetica
/Helvetica /ISOLatin1Encoding 96 FMSR

 536 3164 mt  -90 rotate
(l) s
90 rotate
%%IncludeResource: font Helvetica
/Helvetica /ISOLatin1Encoding 120 FMSR

 476 3143 mt  -90 rotate
( / Injection Rate q) s
90 rotate
%%IncludeResource: font Helvetica
/Helvetica /ISOLatin1Encoding 96 FMSR

 536 2210 mt  -90 rotate
(inj) s
90 rotate
%%IncludeResource: font Helvetica
/Helvetica /ISOLatin1Encoding 120 FMSR

 476 2114 mt  -90 rotate
( = q) s
90 rotate
%%IncludeResource: font Helvetica
/Helvetica /ISOLatin1Encoding 96 FMSR

 536 1911 mt  -90 rotate
(lD) s
90 rotate
%%IncludeResource: font Helvetica
/Helvetica /ISOLatin1Encoding 120 FMSR

 476 1821 mt  -90 rotate
( [-]) s
90 rotate
gs 879 419 5250 4554 rc
DA
/c11 { 0.749020 0.749020 0.000000 sr} bdef
c11
181 -582 181 -522 181 -460 181 -402 181 -348 181 -297 181 -253 181 -213 
181 -180 181 -150 181 -125 181 -104 181 -86 181 -71 181 -59 181 -49 
181 -40 181 -33 181 -27 181 -22 181 -18 181 -15 181 -12 181 -10 
181 -8 181 -7 181 -5 181 -4 181 -4 879 4965 30 MP stroke
gr

c11
DA
0 sg
2104  324 mt 
(Faultleakage multiple layer leakage to upper aquifers) s
 862 5015 mt 
( ) s
6112  461 mt 
( ) s
SO
6 w
1 sg
0 626 1577 0 0 -626 939 1105 4 MP
PP
-1577 0 0 626 1577 0 0 -626 939 1105 5 MP stroke
4 w
DO
SO
6 w
0 sg
 939 1105 mt 2516 1105 L
 939  479 mt 2516  479 L
 939 1105 mt  939  479 L
2516 1105 mt 2516  479 L
 939 1105 mt 2516 1105 L
 939 1105 mt  939  479 L
 939 1105 mt 2516 1105 L
 939  479 mt 2516  479 L
 939 1105 mt  939  479 L
2516 1105 mt 2516  479 L
1392  613 mt 
(Aquifer 1 \(lower\)) s
gs 939 479 1578 627 rc
24 w
c8
348 0 1008 570 2 MP stroke
gr

24 w
c8
0 sg
1392  761 mt 
(Aquifer 8 \(middle\)) s
gs 939 479 1578 627 rc
c9
348 0 1008 718 2 MP stroke
gr

c9
0 sg
1392  908 mt 
(Aquifer 15 \(upper\)) s
gs 939 479 1578 627 rc
c10
348 0 1008 865 2 MP stroke
gr

c10
0 sg
1392 1056 mt 
(Two-layer reference) s
gs 939 479 1578 627 rc
DA
c11
348 0 1008 1013 2 MP stroke
SO
6 w
gr

6 w
c11

end %%Color Dict

eplot
%%EndObject

epage
end

showpage

%%Trailer
%%EOF
