%!PS-Adobe-3.0 EPSF-3.0
%%Creator: MATLAB, The MathWorks, Inc. Version 8.3.0.532 (R2014a). Operating System: Linux 3.7.10-1.40-desktop #1 SMP PREEMPT Thu Jul 10 11:22:12 UTC 2014 (9b06319) x86_64.
%%Title: /home/student/2014/scholz/Dokumente/final data/flux_2layer_neu_dir.eps
%%CreationDate: 10/27/2014  10:28:55
%%DocumentNeededFonts: Helvetica
%%DocumentProcessColors: Cyan Magenta Yellow Black
%%LanguageLevel: 2
%%Pages: 1
%%BoundingBox:    50   182   560   609
%%EndComments

%%BeginProlog
% MathWorks dictionary
/MathWorks 160 dict begin
% definition operators
/bdef {bind def} bind def
/ldef {load def} bind def
/xdef {exch def} bdef
/xstore {exch store} bdef
% operator abbreviations
/c  /clip ldef
/cc /concat ldef
/cp /closepath ldef
/gr /grestore ldef
/gs /gsave ldef
/mt /moveto ldef
/np /newpath ldef
/cm /currentmatrix ldef
/sm /setmatrix ldef
/rm /rmoveto ldef
/rl /rlineto ldef
/s {show newpath} bdef
/sc {setcmykcolor} bdef
/sr /setrgbcolor ldef
/sg /setgray ldef
/w /setlinewidth ldef
/j /setlinejoin ldef
/cap /setlinecap ldef
/rc {rectclip} bdef
/rf {rectfill} bdef
% page state control
/pgsv () def
/bpage {/pgsv save def} bdef
/epage {pgsv restore} bdef
/bplot /gsave ldef
/eplot {stroke grestore} bdef
% orientation switch
/portraitMode 0 def /landscapeMode 1 def /rotateMode 2 def
% coordinate system mappings
/dpi2point 0 def
% font control
/FontSize 0 def
/FMS {/FontSize xstore findfont [FontSize 0 0 FontSize neg 0 0]
  makefont setfont} bdef
/reencode {exch dup where {pop load} {pop StandardEncoding} ifelse
  exch dup 3 1 roll findfont dup length dict begin
  { 1 index /FID ne {def}{pop pop} ifelse } forall
  /Encoding exch def currentdict end definefont pop} bdef
/isroman {findfont /CharStrings get /Agrave known} bdef
/FMSR {3 1 roll 1 index dup isroman {reencode} {pop pop} ifelse
  exch FMS} bdef
/csm {1 dpi2point div -1 dpi2point div scale neg translate
 dup landscapeMode eq {pop -90 rotate}
  {rotateMode eq {90 rotate} if} ifelse} bdef
% line types: solid, dotted, dashed, dotdash
/SO { [] 0 setdash } bdef
/DO { [.5 dpi2point mul 4 dpi2point mul] 0 setdash } bdef
/DA { [6 dpi2point mul] 0 setdash } bdef
/DD { [.5 dpi2point mul 4 dpi2point mul 6 dpi2point mul 4
  dpi2point mul] 0 setdash } bdef
% macros for lines and objects
/L {lineto stroke} bdef
/MP {3 1 roll moveto 1 sub {rlineto} repeat} bdef
/AP {{rlineto} repeat} bdef
/PDlw -1 def
/W {/PDlw currentlinewidth def setlinewidth} def
/PP {closepath eofill} bdef
/DP {closepath stroke} bdef
/MR {4 -2 roll moveto dup  0 exch rlineto exch 0 rlineto
  neg 0 exch rlineto closepath} bdef
/FR {MR stroke} bdef
/PR {MR fill} bdef
/L1i {{currentfile picstr readhexstring pop} image} bdef
/tMatrix matrix def
/MakeOval {newpath tMatrix currentmatrix pop translate scale
0 0 1 0 360 arc tMatrix setmatrix} bdef
/FO {MakeOval stroke} bdef
/PO {MakeOval fill} bdef
/PD {currentlinewidth 2 div 0 360 arc fill
   PDlw -1 eq not {PDlw w /PDlw -1 def} if} def
/FA {newpath tMatrix currentmatrix pop translate scale
  0 0 1 5 -2 roll arc tMatrix setmatrix stroke} bdef
/PA {newpath tMatrix currentmatrix pop	translate 0 0 moveto scale
  0 0 1 5 -2 roll arc closepath tMatrix setmatrix fill} bdef
/FAn {newpath tMatrix currentmatrix pop translate scale
  0 0 1 5 -2 roll arcn tMatrix setmatrix stroke} bdef
/PAn {newpath tMatrix currentmatrix pop translate 0 0 moveto scale
  0 0 1 5 -2 roll arcn closepath tMatrix setmatrix fill} bdef
/vradius 0 def /hradius 0 def /lry 0 def
/lrx 0 def /uly 0 def /ulx 0 def /rad 0 def
/MRR {/vradius xdef /hradius xdef /lry xdef /lrx xdef /uly xdef
  /ulx xdef newpath tMatrix currentmatrix pop ulx hradius add uly
  vradius add translate hradius vradius scale 0 0 1 180 270 arc 
  tMatrix setmatrix lrx hradius sub uly vradius add translate
  hradius vradius scale 0 0 1 270 360 arc tMatrix setmatrix
  lrx hradius sub lry vradius sub translate hradius vradius scale
  0 0 1 0 90 arc tMatrix setmatrix ulx hradius add lry vradius sub
  translate hradius vradius scale 0 0 1 90 180 arc tMatrix setmatrix
  closepath} bdef
/FRR {MRR stroke } bdef
/PRR {MRR fill } bdef
/MlrRR {/lry xdef /lrx xdef /uly xdef /ulx xdef /rad lry uly sub 2 div def
  newpath tMatrix currentmatrix pop ulx rad add uly rad add translate
  rad rad scale 0 0 1 90 270 arc tMatrix setmatrix lrx rad sub lry rad
  sub translate rad rad scale 0 0 1 270 90 arc tMatrix setmatrix
  closepath} bdef
/FlrRR {MlrRR stroke } bdef
/PlrRR {MlrRR fill } bdef
/MtbRR {/lry xdef /lrx xdef /uly xdef /ulx xdef /rad lrx ulx sub 2 div def
  newpath tMatrix currentmatrix pop ulx rad add uly rad add translate
  rad rad scale 0 0 1 180 360 arc tMatrix setmatrix lrx rad sub lry rad
  sub translate rad rad scale 0 0 1 0 180 arc tMatrix setmatrix
  closepath} bdef
/FtbRR {MtbRR stroke } bdef
/PtbRR {MtbRR fill } bdef
/stri 6 array def /dtri 6 array def
/smat 6 array def /dmat 6 array def
/tmat1 6 array def /tmat2 6 array def /dif 3 array def
/asub {/ind2 exch def /ind1 exch def dup dup
  ind1 get exch ind2 get sub exch } bdef
/tri_to_matrix {
  2 0 asub 3 1 asub 4 0 asub 5 1 asub
  dup 0 get exch 1 get 7 -1 roll astore } bdef
/compute_transform {
  dmat dtri tri_to_matrix tmat1 invertmatrix 
  smat stri tri_to_matrix tmat2 concatmatrix } bdef
/ds {stri astore pop} bdef
/dt {dtri astore pop} bdef
/db {2 copy /cols xdef /rows xdef mul dup 3 mul string
  currentfile 
  3 index 0 eq {/ASCIIHexDecode filter}
  {/ASCII85Decode filter 3 index 2 eq {/RunLengthDecode filter} if }
  ifelse exch readstring pop
  dup 0 3 index getinterval /rbmap xdef
  dup 2 index dup getinterval /gbmap xdef
  1 index dup 2 mul exch getinterval /bbmap xdef pop pop}bdef
/it {gs np dtri aload pop moveto lineto lineto cp c
  cols rows 8 compute_transform 
  rbmap gbmap bbmap true 3 colorimage gr}bdef
/il {newpath moveto lineto stroke}bdef
currentdict end def
%%EndProlog

%%BeginSetup
MathWorks begin

0 cap

end
%%EndSetup

%%Page: 1 1
%%BeginPageSetup
%%PageBoundingBox:    50   182   560   609
MathWorks begin
bpage
%%EndPageSetup

%%BeginObject: obj1
bplot

/dpi2point 12 def
portraitMode 0600 7308 csm

    0     0  6125  5117 rc
86 dict begin %Colortable dictionary
/c0 { 0.000000 0.000000 0.000000 sr} bdef
/c1 { 1.000000 1.000000 1.000000 sr} bdef
/c2 { 0.900000 0.000000 0.000000 sr} bdef
/c3 { 0.000000 0.820000 0.000000 sr} bdef
/c4 { 0.000000 0.000000 0.800000 sr} bdef
/c5 { 0.910000 0.820000 0.320000 sr} bdef
/c6 { 1.000000 0.260000 0.820000 sr} bdef
/c7 { 0.000000 0.820000 0.820000 sr} bdef
c0
1 j
1 sg
   0    0 6126 5118 rf
6 w
0 4171 4170 0 0 -4171 1084 4554 4 MP
PP
-4170 0 0 4171 4170 0 0 -4171 1084 4554 5 MP stroke
4 w
DO
SO
6 w
0 sg
1084 4554 mt 5254 4554 L
1084  383 mt 5254  383 L
1084 4554 mt 1084  383 L
5254 4554 mt 5254  383 L
1084 4554 mt 5254 4554 L
1084 4554 mt 1084  383 L
1084 4554 mt 1084 4512 L
1084  383 mt 1084  425 L
%%IncludeResource: font Helvetica
/Helvetica /ISOLatin1Encoding 120 FMSR

1051 4699 mt 
(0) s
1501 4554 mt 1501 4512 L
1501  383 mt 1501  425 L
1435 4699 mt 
(10) s
1918 4554 mt 1918 4512 L
1918  383 mt 1918  425 L
1852 4699 mt 
(20) s
2335 4554 mt 2335 4512 L
2335  383 mt 2335  425 L
2269 4699 mt 
(30) s
2752 4554 mt 2752 4512 L
2752  383 mt 2752  425 L
2686 4699 mt 
(40) s
3169 4554 mt 3169 4512 L
3169  383 mt 3169  425 L
3103 4699 mt 
(50) s
3586 4554 mt 3586 4512 L
3586  383 mt 3586  425 L
3520 4699 mt 
(60) s
4003 4554 mt 4003 4512 L
4003  383 mt 4003  425 L
3937 4699 mt 
(70) s
4420 4554 mt 4420 4512 L
4420  383 mt 4420  425 L
4354 4699 mt 
(80) s
4837 4554 mt 4837 4512 L
4837  383 mt 4837  425 L
4771 4699 mt 
(90) s
5254 4554 mt 5254 4512 L
5254  383 mt 5254  425 L
5154 4699 mt 
(100) s
1084 4554 mt 1126 4554 L
5254 4554 mt 5212 4554 L
 983 4598 mt 
(0) s
1084 4137 mt 1126 4137 L
5254 4137 mt 5212 4137 L
 883 4181 mt 
(0.1) s
1084 3720 mt 1126 3720 L
5254 3720 mt 5212 3720 L
 883 3764 mt 
(0.2) s
1084 3302 mt 1126 3302 L
5254 3302 mt 5212 3302 L
 883 3346 mt 
(0.3) s
1084 2885 mt 1126 2885 L
5254 2885 mt 5212 2885 L
 883 2929 mt 
(0.4) s
1084 2468 mt 1126 2468 L
5254 2468 mt 5212 2468 L
 883 2512 mt 
(0.5) s
1084 2051 mt 1126 2051 L
5254 2051 mt 5212 2051 L
 883 2095 mt 
(0.6) s
1084 1634 mt 1126 1634 L
5254 1634 mt 5212 1634 L
 883 1678 mt 
(0.7) s
1084 1217 mt 1126 1217 L
5254 1217 mt 5212 1217 L
 883 1261 mt 
(0.8) s
1084  800 mt 1126  800 L
5254  800 mt 5212  800 L
 883  844 mt 
(0.9) s
1084  383 mt 1126  383 L
5254  383 mt 5212  383 L
 983  427 mt 
(1) s
1084 4554 mt 5254 4554 L
1084  383 mt 5254  383 L
1084 4554 mt 1084  383 L
5254 4554 mt 5254  383 L
gs 1084 383 4171 4172 rc
24 w
/c8 { 0.000000 0.000000 1.000000 sr} bdef
c8
212 11 205 15 212 21 205 29 212 43 205 69 212 136 205 335 
212 1120 205 -9 212 -12 205 -15 212 -20 205 -27 212 -39 71 -19 
212 -67 134 -70 43 -35 134 -132 85 -154 53 -172 36 -194 22 -198 
15 -196 10 -174 7 -137 4 -89 3 -44 2 -16 1 -3 1 0 
1 0 -1 0 1085 4553 35 MP stroke
gr

24 w
c8
0 sg
2105  288 mt 
(Flux into shallow aquifers along salt wall) s
 801 3400 mt  -90 rotate
(Mass Flow Rate / Injection Rate [-]) s
90 rotate
2839 4842 mt 
(Time [years]) s
1067 4597 mt 
( ) s
5238  425 mt 
( ) s
gs 1084 383 4171 4172 rc
/c9 { 1.000000 0.000000 0.000000 sr} bdef
c9
57 3 40 3 64 5 59 5 84 8 55 6 48 5 8 1 
48 5 44 6 62 8 53 7 53 9 80 13 69 13 69 14 
66 16 74 19 88 26 62 22 58 23 2 1 57 26 46 24 
40 22 39 26 52 37 47 40 40 40 38 44 56 77 35 63 
56 124 73 238 132 770 121 1837 174 -15 243 -27 174 -26 243 -45 
13 -3 242 -64 162 -62 147 -78 162 -117 108 -119 94 -150 108 -257 
72 -301 48 -343 32 -378 21 -395 14 -386 10 -340 6 -260 4 -165 
3 -81 2 -27 1 -6 1 0 1 0 -1 0 1085 4553 63 MP stroke
/c10 { 0.000000 0.498039 0.000000 sr} bdef
c10
208 -11 209 -12 104 -8 104 -7 105 -9 104 -10 104 -11 104 -13 
105 -15 104 -17 104 -21 105 -27 125 -41 41 -17 42 -20 42 -23 
41 -27 42 -33 42 -40 42 -51 41 -68 42 -98 42 -157 41 -317 
21 -346 17 -468 1088 4538 27 MP stroke
/c11 { 0.000000 0.749020 0.749020 sr} bdef
c11
208 -21 209 -25 104 -14 104 -16 105 -17 104 -20 104 -23 104 -25 
105 -30 104 -35 104 -42 105 -52 125 -83 41 -35 42 -40 42 -46 
41 -54 42 -65 42 -80 42 -102 41 -137 42 -195 42 -315 41 -635 
21 -692 17 -933 1088 4522 27 MP stroke
6 w
gr

6 w
c11
1 sg
0 702 1573 0 0 -702 3622 1145 4 MP
PP
-1573 0 0 702 1573 0 0 -702 3622 1145 5 MP stroke
4 w
DO
SO
6 w
0 sg
3622 1145 mt 5195 1145 L
3622  443 mt 5195  443 L
3622 1145 mt 3622  443 L
5195 1145 mt 5195  443 L
3622 1145 mt 5195 1145 L
3622 1145 mt 3622  443 L
3622 1145 mt 5195 1145 L
3622  443 mt 5195  443 L
3622 1145 mt 3622  443 L
5195 1145 mt 5195  443 L
4080  607 mt 
(DuMu) s
%%IncludeResource: font Helvetica
/Helvetica /ISOLatin1Encoding 96 FMSR

4400  547 mt 
(X) s
%%IncludeResource: font Helvetica
/Helvetica /ISOLatin1Encoding 120 FMSR

4464  607 mt 
( Neumann) s
gs 3622 443 1574 703 rc
24 w
c8
352 0 3692 551 2 MP stroke
gr

24 w
c8
0 sg
4080  793 mt 
(DuMu) s
%%IncludeResource: font Helvetica
/Helvetica /ISOLatin1Encoding 96 FMSR

4400  733 mt 
(X) s
%%IncludeResource: font Helvetica
/Helvetica /ISOLatin1Encoding 120 FMSR

4464  793 mt 
( Dirichlet) s
gs 3622 443 1574 703 rc
c9
352 0 3692 737 2 MP stroke
gr

c9
0 sg
4080  948 mt 
(Analytical Neumann) s
gs 3622 443 1574 703 rc
c10
352 0 3692 904 2 MP stroke
gr

c10
0 sg
4080 1097 mt 
(Analytical Dirichlet) s
gs 3622 443 1574 703 rc
c11
352 0 3692 1054 2 MP stroke
6 w
gr

6 w
c11

end %%Color Dict

eplot
%%EndObject

epage
end

showpage

%%Trailer
%%EOF
