%!PS-Adobe-3.0 EPSF-3.0
%%Creator: MATLAB, The MathWorks, Inc. Version 8.3.0.532 (R2014a). Operating System: Linux 3.7.10-1.40-desktop #1 SMP PREEMPT Thu Jul 10 11:22:12 UTC 2014 (9b06319) x86_64.
%%Title: /home/student/2014/scholz/Dokumente/final data/Faultleakage_final_all.eps
%%CreationDate: 10/15/2014  11:20:44
%%DocumentNeededFonts: Helvetica
%%DocumentProcessColors: Cyan Magenta Yellow Black
%%LanguageLevel: 2
%%Pages: 1
%%BoundingBox:   -11   173   624   619
%%EndComments

%%BeginProlog
% MathWorks dictionary
/MathWorks 160 dict begin
% definition operators
/bdef {bind def} bind def
/ldef {load def} bind def
/xdef {exch def} bdef
/xstore {exch store} bdef
% operator abbreviations
/c  /clip ldef
/cc /concat ldef
/cp /closepath ldef
/gr /grestore ldef
/gs /gsave ldef
/mt /moveto ldef
/np /newpath ldef
/cm /currentmatrix ldef
/sm /setmatrix ldef
/rm /rmoveto ldef
/rl /rlineto ldef
/s {show newpath} bdef
/sc {setcmykcolor} bdef
/sr /setrgbcolor ldef
/sg /setgray ldef
/w /setlinewidth ldef
/j /setlinejoin ldef
/cap /setlinecap ldef
/rc {rectclip} bdef
/rf {rectfill} bdef
% page state control
/pgsv () def
/bpage {/pgsv save def} bdef
/epage {pgsv restore} bdef
/bplot /gsave ldef
/eplot {stroke grestore} bdef
% orientation switch
/portraitMode 0 def /landscapeMode 1 def /rotateMode 2 def
% coordinate system mappings
/dpi2point 0 def
% font control
/FontSize 0 def
/FMS {/FontSize xstore findfont [FontSize 0 0 FontSize neg 0 0]
  makefont setfont} bdef
/reencode {exch dup where {pop load} {pop StandardEncoding} ifelse
  exch dup 3 1 roll findfont dup length dict begin
  { 1 index /FID ne {def}{pop pop} ifelse } forall
  /Encoding exch def currentdict end definefont pop} bdef
/isroman {findfont /CharStrings get /Agrave known} bdef
/FMSR {3 1 roll 1 index dup isroman {reencode} {pop pop} ifelse
  exch FMS} bdef
/csm {1 dpi2point div -1 dpi2point div scale neg translate
 dup landscapeMode eq {pop -90 rotate}
  {rotateMode eq {90 rotate} if} ifelse} bdef
% line types: solid, dotted, dashed, dotdash
/SO { [] 0 setdash } bdef
/DO { [.5 dpi2point mul 4 dpi2point mul] 0 setdash } bdef
/DA { [6 dpi2point mul] 0 setdash } bdef
/DD { [.5 dpi2point mul 4 dpi2point mul 6 dpi2point mul 4
  dpi2point mul] 0 setdash } bdef
% macros for lines and objects
/L {lineto stroke} bdef
/MP {3 1 roll moveto 1 sub {rlineto} repeat} bdef
/AP {{rlineto} repeat} bdef
/PDlw -1 def
/W {/PDlw currentlinewidth def setlinewidth} def
/PP {closepath eofill} bdef
/DP {closepath stroke} bdef
/MR {4 -2 roll moveto dup  0 exch rlineto exch 0 rlineto
  neg 0 exch rlineto closepath} bdef
/FR {MR stroke} bdef
/PR {MR fill} bdef
/L1i {{currentfile picstr readhexstring pop} image} bdef
/tMatrix matrix def
/MakeOval {newpath tMatrix currentmatrix pop translate scale
0 0 1 0 360 arc tMatrix setmatrix} bdef
/FO {MakeOval stroke} bdef
/PO {MakeOval fill} bdef
/PD {currentlinewidth 2 div 0 360 arc fill
   PDlw -1 eq not {PDlw w /PDlw -1 def} if} def
/FA {newpath tMatrix currentmatrix pop translate scale
  0 0 1 5 -2 roll arc tMatrix setmatrix stroke} bdef
/PA {newpath tMatrix currentmatrix pop	translate 0 0 moveto scale
  0 0 1 5 -2 roll arc closepath tMatrix setmatrix fill} bdef
/FAn {newpath tMatrix currentmatrix pop translate scale
  0 0 1 5 -2 roll arcn tMatrix setmatrix stroke} bdef
/PAn {newpath tMatrix currentmatrix pop translate 0 0 moveto scale
  0 0 1 5 -2 roll arcn closepath tMatrix setmatrix fill} bdef
/vradius 0 def /hradius 0 def /lry 0 def
/lrx 0 def /uly 0 def /ulx 0 def /rad 0 def
/MRR {/vradius xdef /hradius xdef /lry xdef /lrx xdef /uly xdef
  /ulx xdef newpath tMatrix currentmatrix pop ulx hradius add uly
  vradius add translate hradius vradius scale 0 0 1 180 270 arc 
  tMatrix setmatrix lrx hradius sub uly vradius add translate
  hradius vradius scale 0 0 1 270 360 arc tMatrix setmatrix
  lrx hradius sub lry vradius sub translate hradius vradius scale
  0 0 1 0 90 arc tMatrix setmatrix ulx hradius add lry vradius sub
  translate hradius vradius scale 0 0 1 90 180 arc tMatrix setmatrix
  closepath} bdef
/FRR {MRR stroke } bdef
/PRR {MRR fill } bdef
/MlrRR {/lry xdef /lrx xdef /uly xdef /ulx xdef /rad lry uly sub 2 div def
  newpath tMatrix currentmatrix pop ulx rad add uly rad add translate
  rad rad scale 0 0 1 90 270 arc tMatrix setmatrix lrx rad sub lry rad
  sub translate rad rad scale 0 0 1 270 90 arc tMatrix setmatrix
  closepath} bdef
/FlrRR {MlrRR stroke } bdef
/PlrRR {MlrRR fill } bdef
/MtbRR {/lry xdef /lrx xdef /uly xdef /ulx xdef /rad lrx ulx sub 2 div def
  newpath tMatrix currentmatrix pop ulx rad add uly rad add translate
  rad rad scale 0 0 1 180 360 arc tMatrix setmatrix lrx rad sub lry rad
  sub translate rad rad scale 0 0 1 0 180 arc tMatrix setmatrix
  closepath} bdef
/FtbRR {MtbRR stroke } bdef
/PtbRR {MtbRR fill } bdef
/stri 6 array def /dtri 6 array def
/smat 6 array def /dmat 6 array def
/tmat1 6 array def /tmat2 6 array def /dif 3 array def
/asub {/ind2 exch def /ind1 exch def dup dup
  ind1 get exch ind2 get sub exch } bdef
/tri_to_matrix {
  2 0 asub 3 1 asub 4 0 asub 5 1 asub
  dup 0 get exch 1 get 7 -1 roll astore } bdef
/compute_transform {
  dmat dtri tri_to_matrix tmat1 invertmatrix 
  smat stri tri_to_matrix tmat2 concatmatrix } bdef
/ds {stri astore pop} bdef
/dt {dtri astore pop} bdef
/db {2 copy /cols xdef /rows xdef mul dup 3 mul string
  currentfile 
  3 index 0 eq {/ASCIIHexDecode filter}
  {/ASCII85Decode filter 3 index 2 eq {/RunLengthDecode filter} if }
  ifelse exch readstring pop
  dup 0 3 index getinterval /rbmap xdef
  dup 2 index dup getinterval /gbmap xdef
  1 index dup 2 mul exch getinterval /bbmap xdef pop pop}bdef
/it {gs np dtri aload pop moveto lineto lineto cp c
  cols rows 8 compute_transform 
  rbmap gbmap bbmap true 3 colorimage gr}bdef
/il {newpath moveto lineto stroke}bdef
currentdict end def
%%EndProlog

%%BeginSetup
MathWorks begin

0 cap

end
%%EndSetup

%%Page: 1 1
%%BeginPageSetup
%%PageBoundingBox:   -11   173   624   619
MathWorks begin
bpage
%%EndPageSetup

%%BeginObject: obj1
bplot

/dpi2point 12 def
portraitMode -0132 7428 csm

    0     0  7622  5347 rc
87 dict begin %Colortable dictionary
/c0 { 0.000000 0.000000 0.000000 sr} bdef
/c1 { 1.000000 1.000000 1.000000 sr} bdef
/c2 { 0.900000 0.000000 0.000000 sr} bdef
/c3 { 0.000000 0.820000 0.000000 sr} bdef
/c4 { 0.000000 0.000000 0.800000 sr} bdef
/c5 { 0.910000 0.820000 0.320000 sr} bdef
/c6 { 1.000000 0.260000 0.820000 sr} bdef
/c7 { 0.000000 0.820000 0.820000 sr} bdef
c0
1 j
1 sg
   0    0 7623 5348 rf
6 w
0 4358 5906 0 0 -4358 991 4759 4 MP
PP
-5906 0 0 4358 5906 0 0 -4358 991 4759 5 MP stroke
4 w
DO
SO
6 w
0 sg
 991 4759 mt 6897 4759 L
 991  401 mt 6897  401 L
 991 4759 mt  991  401 L
6897 4759 mt 6897  401 L
 991 4759 mt 6897 4759 L
 991 4759 mt  991  401 L
 991 4759 mt  991 4729 L
 991  401 mt  991  430 L
 991 4759 mt  991 4699 L
 991  401 mt  991  460 L
%%IncludeResource: font Helvetica
/Helvetica /ISOLatin1Encoding 120 FMSR

 879 4941 mt 
(10) s
%%IncludeResource: font Helvetica
/Helvetica /ISOLatin1Encoding 80 FMSR

1012 4867 mt 
(-1) s
1245 4759 mt 1245 4729 L
1245  401 mt 1245  430 L
1393 4759 mt 1393 4729 L
1393  401 mt 1393  430 L
1499 4759 mt 1499 4729 L
1499  401 mt 1499  430 L
1580 4759 mt 1580 4729 L
1580  401 mt 1580  430 L
1647 4759 mt 1647 4729 L
1647  401 mt 1647  430 L
1704 4759 mt 1704 4729 L
1704  401 mt 1704  430 L
1753 4759 mt 1753 4729 L
1753  401 mt 1753  430 L
1796 4759 mt 1796 4729 L
1796  401 mt 1796  430 L
1834 4759 mt 1834 4729 L
1834  401 mt 1834  430 L
1834 4759 mt 1834 4699 L
1834  401 mt 1834  460 L
%%IncludeResource: font Helvetica
/Helvetica /ISOLatin1Encoding 120 FMSR

1746 4941 mt 
(10) s
%%IncludeResource: font Helvetica
/Helvetica /ISOLatin1Encoding 80 FMSR

1879 4867 mt 
(0) s
2088 4759 mt 2088 4729 L
2088  401 mt 2088  430 L
2237 4759 mt 2237 4729 L
2237  401 mt 2237  430 L
2342 4759 mt 2342 4729 L
2342  401 mt 2342  430 L
2424 4759 mt 2424 4729 L
2424  401 mt 2424  430 L
2491 4759 mt 2491 4729 L
2491  401 mt 2491  430 L
2547 4759 mt 2547 4729 L
2547  401 mt 2547  430 L
2596 4759 mt 2596 4729 L
2596  401 mt 2596  430 L
2640 4759 mt 2640 4729 L
2640  401 mt 2640  430 L
2678 4759 mt 2678 4729 L
2678  401 mt 2678  430 L
2678 4759 mt 2678 4699 L
2678  401 mt 2678  460 L
%%IncludeResource: font Helvetica
/Helvetica /ISOLatin1Encoding 120 FMSR

2590 4941 mt 
(10) s
%%IncludeResource: font Helvetica
/Helvetica /ISOLatin1Encoding 80 FMSR

2723 4867 mt 
(1) s
2932 4759 mt 2932 4729 L
2932  401 mt 2932  430 L
3081 4759 mt 3081 4729 L
3081  401 mt 3081  430 L
3186 4759 mt 3186 4729 L
3186  401 mt 3186  430 L
3268 4759 mt 3268 4729 L
3268  401 mt 3268  430 L
3335 4759 mt 3335 4729 L
3335  401 mt 3335  430 L
3391 4759 mt 3391 4729 L
3391  401 mt 3391  430 L
3440 4759 mt 3440 4729 L
3440  401 mt 3440  430 L
3483 4759 mt 3483 4729 L
3483  401 mt 3483  430 L
3522 4759 mt 3522 4729 L
3522  401 mt 3522  430 L
3522 4759 mt 3522 4699 L
3522  401 mt 3522  460 L
%%IncludeResource: font Helvetica
/Helvetica /ISOLatin1Encoding 120 FMSR

3434 4941 mt 
(10) s
%%IncludeResource: font Helvetica
/Helvetica /ISOLatin1Encoding 80 FMSR

3567 4867 mt 
(2) s
3776 4759 mt 3776 4729 L
3776  401 mt 3776  430 L
3925 4759 mt 3925 4729 L
3925  401 mt 3925  430 L
4030 4759 mt 4030 4729 L
4030  401 mt 4030  430 L
4112 4759 mt 4112 4729 L
4112  401 mt 4112  430 L
4179 4759 mt 4179 4729 L
4179  401 mt 4179  430 L
4235 4759 mt 4235 4729 L
4235  401 mt 4235  430 L
4284 4759 mt 4284 4729 L
4284  401 mt 4284  430 L
4327 4759 mt 4327 4729 L
4327  401 mt 4327  430 L
4366 4759 mt 4366 4729 L
4366  401 mt 4366  430 L
4366 4759 mt 4366 4699 L
4366  401 mt 4366  460 L
%%IncludeResource: font Helvetica
/Helvetica /ISOLatin1Encoding 120 FMSR

4278 4941 mt 
(10) s
%%IncludeResource: font Helvetica
/Helvetica /ISOLatin1Encoding 80 FMSR

4411 4867 mt 
(3) s
4620 4759 mt 4620 4729 L
4620  401 mt 4620  430 L
4769 4759 mt 4769 4729 L
4769  401 mt 4769  430 L
4874 4759 mt 4874 4729 L
4874  401 mt 4874  430 L
4956 4759 mt 4956 4729 L
4956  401 mt 4956  430 L
5023 4759 mt 5023 4729 L
5023  401 mt 5023  430 L
5079 4759 mt 5079 4729 L
5079  401 mt 5079  430 L
5128 4759 mt 5128 4729 L
5128  401 mt 5128  430 L
5171 4759 mt 5171 4729 L
5171  401 mt 5171  430 L
5210 4759 mt 5210 4729 L
5210  401 mt 5210  430 L
5210 4759 mt 5210 4699 L
5210  401 mt 5210  460 L
%%IncludeResource: font Helvetica
/Helvetica /ISOLatin1Encoding 120 FMSR

5122 4941 mt 
(10) s
%%IncludeResource: font Helvetica
/Helvetica /ISOLatin1Encoding 80 FMSR

5255 4867 mt 
(4) s
5464 4759 mt 5464 4729 L
5464  401 mt 5464  430 L
5612 4759 mt 5612 4729 L
5612  401 mt 5612  430 L
5718 4759 mt 5718 4729 L
5718  401 mt 5718  430 L
5800 4759 mt 5800 4729 L
5800  401 mt 5800  430 L
5866 4759 mt 5866 4729 L
5866  401 mt 5866  430 L
5923 4759 mt 5923 4729 L
5923  401 mt 5923  430 L
5972 4759 mt 5972 4729 L
5972  401 mt 5972  430 L
6015 4759 mt 6015 4729 L
6015  401 mt 6015  430 L
6054 4759 mt 6054 4729 L
6054  401 mt 6054  430 L
6054 4759 mt 6054 4699 L
6054  401 mt 6054  460 L
%%IncludeResource: font Helvetica
/Helvetica /ISOLatin1Encoding 120 FMSR

5966 4941 mt 
(10) s
%%IncludeResource: font Helvetica
/Helvetica /ISOLatin1Encoding 80 FMSR

6099 4867 mt 
(5) s
6308 4759 mt 6308 4729 L
6308  401 mt 6308  430 L
6456 4759 mt 6456 4729 L
6456  401 mt 6456  430 L
6562 4759 mt 6562 4729 L
6562  401 mt 6562  430 L
6643 4759 mt 6643 4729 L
6643  401 mt 6643  430 L
6710 4759 mt 6710 4729 L
6710  401 mt 6710  430 L
6767 4759 mt 6767 4729 L
6767  401 mt 6767  430 L
6816 4759 mt 6816 4729 L
6816  401 mt 6816  430 L
6859 4759 mt 6859 4729 L
6859  401 mt 6859  430 L
6898 4759 mt 6898 4729 L
6898  401 mt 6898  430 L
6898 4759 mt 6898 4699 L
6898  401 mt 6898  460 L
%%IncludeResource: font Helvetica
/Helvetica /ISOLatin1Encoding 120 FMSR

6810 4941 mt 
(10) s
%%IncludeResource: font Helvetica
/Helvetica /ISOLatin1Encoding 80 FMSR

6943 4867 mt 
(6) s
 991 4759 mt 1050 4759 L
6898 4759 mt 6838 4759 L
%%IncludeResource: font Helvetica
/Helvetica /ISOLatin1Encoding 120 FMSR

 890 4803 mt 
(0) s
 991 4323 mt 1050 4323 L
6898 4323 mt 6838 4323 L
 790 4367 mt 
(0.1) s
 991 3887 mt 1050 3887 L
6898 3887 mt 6838 3887 L
 790 3931 mt 
(0.2) s
 991 3451 mt 1050 3451 L
6898 3451 mt 6838 3451 L
 790 3495 mt 
(0.3) s
 991 3015 mt 1050 3015 L
6898 3015 mt 6838 3015 L
 790 3059 mt 
(0.4) s
 991 2580 mt 1050 2580 L
6898 2580 mt 6838 2580 L
 790 2624 mt 
(0.5) s
 991 2144 mt 1050 2144 L
6898 2144 mt 6838 2144 L
 790 2188 mt 
(0.6) s
 991 1708 mt 1050 1708 L
6898 1708 mt 6838 1708 L
 790 1752 mt 
(0.7) s
 991 1272 mt 1050 1272 L
6898 1272 mt 6838 1272 L
 790 1316 mt 
(0.8) s
 991  836 mt 1050  836 L
6898  836 mt 6838  836 L
 790  880 mt 
(0.9) s
 991  401 mt 1050  401 L
6898  401 mt 6838  401 L
 890  445 mt 
(1) s
 991 4759 mt 6897 4759 L
 991  401 mt 6897  401 L
 991 4759 mt  991  401 L
6897 4759 mt 6897  401 L
3659 5062 mt 
(Time t) s
%%IncludeResource: font Helvetica
/Helvetica /ISOLatin1Encoding 96 FMSR

3992 5122 mt 
(D) s
%%IncludeResource: font Helvetica
/Helvetica /ISOLatin1Encoding 120 FMSR

4061 5062 mt 
( [-]) s
 654 3565 mt  -90 rotate
(leakage q) s
90 rotate
%%IncludeResource: font Helvetica
/Helvetica /ISOLatin1Encoding 96 FMSR

 714 3045 mt  -90 rotate
(l) s
90 rotate
%%IncludeResource: font Helvetica
/Helvetica /ISOLatin1Encoding 120 FMSR

 654 3024 mt  -90 rotate
( / injection rate q) s
90 rotate
%%IncludeResource: font Helvetica
/Helvetica /ISOLatin1Encoding 96 FMSR

 714 2145 mt  -90 rotate
(Inj) s
90 rotate
%%IncludeResource: font Helvetica
/Helvetica /ISOLatin1Encoding 120 FMSR

 654 2044 mt  -90 rotate
( = q) s
90 rotate
%%IncludeResource: font Helvetica
/Helvetica /ISOLatin1Encoding 96 FMSR

 714 1841 mt  -90 rotate
(l) s
90 rotate
 714 1820 mt  -90 rotate
(D) s
90 rotate
%%IncludeResource: font Helvetica
/Helvetica /ISOLatin1Encoding 120 FMSR

 654 1751 mt  -90 rotate
( [-]) s
90 rotate
2876  252 mt 
(Dimensionless leakage depending on ) s
%%IncludeResource: font Symbol
/Symbol /ISOLatin1Encoding 120 FMSR

4903  252 mt 
(a) s
%%IncludeResource: font Helvetica
/Helvetica /ISOLatin1Encoding 96 FMSR

4978  312 mt 
(u) s
%%IncludeResource: font Helvetica
/Helvetica /ISOLatin1Encoding 120 FMSR

 974 4802 mt 
( ) s
6882  443 mt 
( ) s
gs 991 401 5908 4359 rc
24 w
/c8 { 1.000000 0.000000 0.000000 sr} bdef
c8
469 -212 488 -401 489 -634 488 -792 489 -751 489 -561 488 -357 489 -205 
488 -110 489 -56 488 -23 489 -6 65 0 991 4758 14 MP stroke
/c9 { 0.749020 0.000000 0.749020 sr} bdef
c9
469 -24 488 -48 489 -94 488 -181 489 -337 489 -573 488 -804 489 -858 
488 -695 489 -443 488 -213 489 -57 65 -1 991 4756 14 MP stroke
/c10 { 0.000000 0.498039 0.000000 sr} bdef
c10
469 -5 488 -9 489 -17 488 -33 489 -65 489 -127 488 -244 489 -459 
488 -799 489 -1128 488 -1031 489 -409 65 -4 991 4735 14 MP stroke
/c11 { 0.000000 0.000000 1.000000 sr} bdef
c11
469 -3 488 -4 489 -10 488 -18 489 -36 489 -70 488 -135 489 -263 
488 -501 489 -902 488 -1321 489 -975 65 -16 991 4657 14 MP stroke
12 w
gr

12 w
c11
/c12 { 0.000000 1.000000 0.000000 sr} bdef
c12
1020 4619 mt 1070 4669 L
1070 4619 mt 1020 4669 L
1079 4699 mt 1129 4749 L
1129 4699 mt 1079 4749 L
1090 4538 mt 1140 4588 L
1140 4538 mt 1090 4588 L
1150 4661 mt 1200 4711 L
1200 4661 mt 1150 4711 L
1154 4448 mt 1204 4498 L
1204 4448 mt 1154 4498 L
1205 4366 mt 1255 4416 L
1255 4366 mt 1205 4416 L
1224 4617 mt 1274 4667 L
1274 4617 mt 1224 4667 L
1249 4281 mt 1299 4331 L
1299 4281 mt 1249 4331 L
1290 4197 mt 1340 4247 L
1340 4197 mt 1290 4247 L
1298 4554 mt 1348 4604 L
1348 4554 mt 1298 4604 L
1330 4108 mt 1380 4158 L
1380 4108 mt 1330 4158 L
1355 4708 mt 1405 4758 L
1405 4708 mt 1355 4758 L
1371 4012 mt 1421 4062 L
1421 4012 mt 1371 4062 L
1372 4485 mt 1422 4535 L
1422 4485 mt 1372 4535 L
1408 3925 mt 1458 3975 L
1458 3925 mt 1408 3975 L
1440 4401 mt 1490 4451 L
1490 4401 mt 1440 4451 L
1442 3829 mt 1492 3879 L
1492 3829 mt 1442 3879 L
1451 4682 mt 1501 4732 L
1501 4682 mt 1451 4732 L
1487 3722 mt 1537 3772 L
1537 3722 mt 1487 3772 L
1497 4320 mt 1547 4370 L
1547 4320 mt 1497 4370 L
1516 3636 mt 1566 3686 L
1566 3636 mt 1516 3686 L
1525 4669 mt 1575 4719 L
1575 4669 mt 1525 4719 L
1549 3547 mt 1599 3597 L
1599 3547 mt 1549 3597 L
1551 4244 mt 1601 4294 L
1601 4244 mt 1551 4294 L
1578 3460 mt 1628 3510 L
1628 3460 mt 1578 3510 L
1595 4155 mt 1645 4205 L
1645 4155 mt 1595 4205 L
1599 4648 mt 1649 4698 L
1649 4648 mt 1599 4698 L
1607 3377 mt 1657 3427 L
1657 3377 mt 1607 3427 L
1640 3288 mt 1690 3338 L
1690 3288 mt 1640 3338 L
1642 4070 mt 1692 4120 L
1692 4070 mt 1642 4120 L
1670 3201 mt 1720 3251 L
1720 3201 mt 1670 3251 L
1673 4626 mt 1723 4676 L
1723 4626 mt 1673 4676 L
1683 3992 mt 1733 4042 L
1733 3992 mt 1683 4042 L
1693 3133 mt 1743 3183 L
1743 3133 mt 1693 3183 L
1720 3913 mt 1770 3963 L
1770 3913 mt 1720 3963 L
1725 3045 mt 1775 3095 L
1775 3045 mt 1725 3095 L
1747 4599 mt 1797 4649 L
1797 4599 mt 1747 4649 L
1755 2952 mt 1805 3002 L
1805 2952 mt 1755 3002 L
1761 3826 mt 1811 3876 L
1811 3826 mt 1761 3876 L
1786 2869 mt 1836 2919 L
1836 2869 mt 1786 2919 L
1798 3748 mt 1848 3798 L
1848 3748 mt 1798 3798 L
1817 2790 mt 1867 2840 L
1867 2790 mt 1817 2840 L
1821 4564 mt 1871 4614 L
1871 4564 mt 1821 4614 L
1832 3672 mt 1882 3722 L
1882 3672 mt 1832 3722 L
1851 2705 mt 1901 2755 L
1901 2705 mt 1851 2755 L
1866 3588 mt 1916 3638 L
1916 3588 mt 1866 3638 L
1878 2630 mt 1928 2680 L
1928 2630 mt 1878 2680 L
1895 4527 mt 1945 4577 L
1945 4527 mt 1895 4577 L
1900 3510 mt 1950 3560 L
1950 3510 mt 1900 3560 L
1910 2553 mt 1960 2603 L
1960 2553 mt 1910 2603 L
1934 3431 mt 1984 3481 L
1984 3431 mt 1934 3481 L
1942 2479 mt 1992 2529 L
1992 2479 mt 1942 2529 L
1968 3350 mt 2018 3400 L
2018 3350 mt 1968 3400 L
1969 4485 mt 2019 4535 L
2019 4485 mt 1969 4535 L
1973 2395 mt 2023 2445 L
2023 2395 mt 1973 2445 L
2002 3267 mt 2052 3317 L
2052 3267 mt 2002 3317 L
2008 2319 mt 2058 2369 L
2058 2319 mt 2008 2369 L
2036 3183 mt 2086 3233 L
2086 3183 mt 2036 3233 L
2038 4702 mt 2088 4752 L
2088 4702 mt 2038 4752 L
2041 2234 mt 2091 2284 L
2091 2234 mt 2041 2284 L
2043 4435 mt 2093 4485 L
2093 4435 mt 2043 4485 L
2071 3101 mt 2121 3151 L
2121 3101 mt 2071 3151 L
2078 2150 mt 2128 2200 L
2128 2150 mt 2078 2200 L
2104 3020 mt 2154 3070 L
2154 3020 mt 2104 3070 L
2113 4703 mt 2163 4753 L
2163 4703 mt 2113 4753 L
2117 4380 mt 2167 4430 L
2167 4380 mt 2117 4430 L
2119 2066 mt 2169 2116 L
2169 2066 mt 2119 2116 L
2137 2937 mt 2187 2987 L
2187 2937 mt 2137 2987 L
2159 1985 mt 2209 2035 L
2209 1985 mt 2159 2035 L
2175 2851 mt 2225 2901 L
2225 2851 mt 2175 2901 L
2175 4691 mt 2225 4741 L
2225 4691 mt 2175 4741 L
2191 4321 mt 2241 4371 L
2241 4321 mt 2191 4371 L
2204 1902 mt 2254 1952 L
2254 1902 mt 2204 1952 L
2212 2759 mt 2262 2809 L
2262 2759 mt 2212 2809 L
2244 1819 mt 2294 1869 L
2294 1819 mt 2244 1869 L
2249 4681 mt 2299 4731 L
2299 4681 mt 2249 4731 L
2253 2667 mt 2303 2717 L
2303 2667 mt 2253 2717 L
2265 4258 mt 2315 4308 L
2315 4258 mt 2265 4308 L
2290 2601 mt 2340 2651 L
2340 2601 mt 2290 2651 L
2291 1733 mt 2341 1783 L
2341 1733 mt 2291 1783 L
2321 2513 mt 2371 2563 L
2371 2513 mt 2321 2563 L
2323 4669 mt 2373 4719 L
2373 4669 mt 2323 4719 L
2339 1654 mt 2389 1704 L
2389 1654 mt 2339 1704 L
2339 4188 mt 2389 4238 L
2389 4188 mt 2339 4238 L
2358 2430 mt 2408 2480 L
2408 2430 mt 2358 2480 L
2389 1567 mt 2439 1617 L
2439 1567 mt 2389 1617 L
2395 2341 mt 2445 2391 L
2445 2341 mt 2395 2391 L
2397 4662 mt 2447 4712 L
2447 4662 mt 2397 4712 L
2413 4110 mt 2463 4160 L
2463 4110 mt 2413 4160 L
2433 2267 mt 2483 2317 L
2483 2267 mt 2433 2317 L
2443 1491 mt 2493 1541 L
2493 1491 mt 2443 1541 L
2470 4655 mt 2520 4705 L
2520 4655 mt 2470 4705 L
2473 2183 mt 2523 2233 L
2523 2183 mt 2473 2233 L
2484 4033 mt 2534 4083 L
2534 4033 mt 2484 4083 L
2501 1407 mt 2551 1457 L
2551 1407 mt 2501 1457 L
2514 2103 mt 2564 2153 L
2564 2103 mt 2514 2153 L
2544 4641 mt 2594 4691 L
2594 4641 mt 2544 4691 L
2548 3959 mt 2598 4009 L
2598 3959 mt 2548 4009 L
2558 2018 mt 2608 2068 L
2608 2018 mt 2558 2068 L
2561 1329 mt 2611 1379 L
2611 1329 mt 2561 1379 L
2602 1935 mt 2652 1985 L
2652 1935 mt 2602 1985 L
2608 3881 mt 2658 3931 L
2658 3881 mt 2608 3931 L
2618 4625 mt 2668 4675 L
2668 4625 mt 2618 4675 L
2626 1251 mt 2676 1301 L
2676 1251 mt 2626 1301 L
2646 1853 mt 2696 1903 L
2696 1853 mt 2646 1903 L
2666 3806 mt 2716 3856 L
2716 3806 mt 2666 3856 L
2692 4609 mt 2742 4659 L
2742 4609 mt 2692 4659 L
2696 1173 mt 2746 1223 L
2746 1173 mt 2696 1223 L
2697 1772 mt 2747 1822 L
2747 1772 mt 2697 1822 L
2723 3726 mt 2773 3776 L
2773 3726 mt 2723 3776 L
2740 1694 mt 2790 1744 L
2790 1694 mt 2740 1744 L
2766 4594 mt 2816 4644 L
2816 4594 mt 2766 4644 L
2770 1095 mt 2820 1145 L
2820 1095 mt 2770 1145 L
2781 3644 mt 2831 3694 L
2831 3644 mt 2781 3694 L
2788 1614 mt 2838 1664 L
2838 1614 mt 2788 1664 L
2835 3563 mt 2885 3613 L
2885 3563 mt 2835 3613 L
2838 1537 mt 2888 1587 L
2888 1537 mt 2838 1587 L
2839 4578 mt 2889 4628 L
2889 4578 mt 2839 4628 L
2845 1024 mt 2895 1074 L
2895 1024 mt 2845 1074 L
2889 3479 mt 2939 3529 L
2939 3479 mt 2889 3529 L
2893 1458 mt 2943 1508 L
2943 1458 mt 2893 1508 L
2913 4562 mt 2963 4612 L
2963 4562 mt 2913 4612 L
2919  959 mt 2969 1009 L
2969  959 mt 2919 1009 L
2943 3394 mt 2993 3444 L
2993 3394 mt 2943 3444 L
2950 1381 mt 3000 1431 L
3000 1381 mt 2950 1431 L
2987 4541 mt 3037 4591 L
3037 4541 mt 2987 4591 L
2993  907 mt 3043  957 L
3043  907 mt 2993  957 L
2997 3305 mt 3047 3355 L
3047 3305 mt 2997 3355 L
3014 1302 mt 3064 1352 L
3064 1302 mt 3014 1352 L
3047 3223 mt 3097 3273 L
3097 3223 mt 3047 3273 L
3061 4518 mt 3111 4568 L
3111 4518 mt 3061 4568 L
3067  853 mt 3117  903 L
3117  853 mt 3067  903 L
3081 1222 mt 3131 1272 L
3131 1222 mt 3081 1272 L
3095 3142 mt 3145 3192 L
3145 3142 mt 3095 3192 L
3135 4491 mt 3185 4541 L
3185 4491 mt 3135 4541 L
3139 3063 mt 3189 3113 L
3189 3063 mt 3139 3113 L
3141  805 mt 3191  855 L
3191  805 mt 3141  855 L
3152 1142 mt 3202 1192 L
3202 1142 mt 3152 1192 L
3183 2987 mt 3233 3037 L
3233 2987 mt 3183 3037 L
3209 4462 mt 3259 4512 L
3259 4462 mt 3209 4512 L
3214  763 mt 3264  813 L
3264  763 mt 3214  813 L
3226 1069 mt 3276 1119 L
3276 1069 mt 3226 1119 L
3230 2903 mt 3280 2953 L
3280 2903 mt 3230 2953 L
3278 2814 mt 3328 2864 L
3328 2814 mt 3278 2864 L
3282 4431 mt 3332 4481 L
3332 4431 mt 3282 4481 L
3288  725 mt 3338  775 L
3338  725 mt 3288  775 L
3300 1004 mt 3350 1054 L
3350 1004 mt 3300 1054 L
3331 2726 mt 3381 2776 L
3381 2726 mt 3331 2776 L
3356 4398 mt 3406 4448 L
3406 4398 mt 3356 4448 L
3362  690 mt 3412  740 L
3412  690 mt 3362  740 L
3372 2649 mt 3422 2699 L
3422 2649 mt 3372 2699 L
3374  944 mt 3424  994 L
3424  944 mt 3374  994 L
3413 2570 mt 3463 2620 L
3463 2570 mt 3413 2620 L
3430 4361 mt 3480 4411 L
3480 4361 mt 3430 4411 L
3436  658 mt 3486  708 L
3486  658 mt 3436  708 L
3448  890 mt 3498  940 L
3498  890 mt 3448  940 L
3460 2489 mt 3510 2539 L
3510 2489 mt 3460 2539 L
3504 2409 mt 3554 2459 L
3554 2409 mt 3504 2459 L
3504 4322 mt 3554 4372 L
3554 4322 mt 3504 4372 L
3510  629 mt 3560  679 L
3560  629 mt 3510  679 L
3522  839 mt 3572  889 L
3572  839 mt 3522  889 L
3548 2333 mt 3598 2383 L
3598 2333 mt 3548 2383 L
3578 4274 mt 3628 4324 L
3628 4274 mt 3578 4324 L
3584  607 mt 3634  657 L
3634  607 mt 3584  657 L
3595 2250 mt 3645 2300 L
3645 2250 mt 3595 2300 L
3596  796 mt 3646  846 L
3646  796 mt 3596  846 L
3643 2169 mt 3693 2219 L
3693 2169 mt 3643 2219 L
3652 4222 mt 3702 4272 L
3702 4222 mt 3652 4272 L
3658  584 mt 3708  634 L
3708  584 mt 3658  634 L
3670  755 mt 3720  805 L
3720  755 mt 3670  805 L
3690 2088 mt 3740 2138 L
3740 2088 mt 3690 2138 L
3726 4174 mt 3776 4224 L
3776 4174 mt 3726 4224 L
3732  561 mt 3782  611 L
3782  561 mt 3732  611 L
3737 2004 mt 3787 2054 L
3787 2004 mt 3737 2054 L
3744  716 mt 3794  766 L
3794  716 mt 3744  766 L
3788 1925 mt 3838 1975 L
3838 1925 mt 3788 1975 L
3800 4115 mt 3850 4165 L
3850 4115 mt 3800 4165 L
3805  541 mt 3855  591 L
3855  541 mt 3805  591 L
3818  684 mt 3868  734 L
3868  684 mt 3818  734 L
3842 1845 mt 3892 1895 L
3892 1845 mt 3842 1895 L
3874 4047 mt 3924 4097 L
3924 4047 mt 3874 4097 L
3879  526 mt 3929  576 L
3929  526 mt 3879  576 L
3892  655 mt 3942  705 L
3942  655 mt 3892  705 L
3893 1771 mt 3943 1821 L
3943 1771 mt 3893 1821 L
3944 1695 mt 3994 1745 L
3994 1695 mt 3944 1745 L
3948 3982 mt 3998 4032 L
3998 3982 mt 3948 4032 L
3953  508 mt 4003  558 L
4003  508 mt 3953  558 L
3966  628 mt 4016  678 L
4016  628 mt 3966  678 L
3998 1610 mt 4048 1660 L
4048 1610 mt 3998 1660 L
4022 3916 mt 4072 3966 L
4072 3916 mt 4022 3966 L
4027  493 mt 4077  543 L
4077  493 mt 4027  543 L
4040  598 mt 4090  648 L
4090  598 mt 4040  648 L
4055 1527 mt 4105 1577 L
4105 1527 mt 4055 1577 L
4096 3843 mt 4146 3893 L
4146 3843 mt 4096 3893 L
4101  479 mt 4151  529 L
4151  479 mt 4101  529 L
4114  573 mt 4164  623 L
4164  573 mt 4114  623 L
4119 1443 mt 4169 1493 L
4169 1443 mt 4119 1493 L
4167 3764 mt 4217 3814 L
4217 3764 mt 4167 3814 L
4174  467 mt 4224  517 L
4224  467 mt 4174  517 L
4183 1367 mt 4233 1417 L
4233 1367 mt 4183 1417 L
4187  553 mt 4237  603 L
4237  553 mt 4187  603 L
4235 3684 mt 4285 3734 L
4285 3684 mt 4235 3734 L
4247 1289 mt 4297 1339 L
4297 1289 mt 4247 1339 L
4252  455 mt 4302  505 L
4302  455 mt 4252  505 L
4257  536 mt 4307  586 L
4307  536 mt 4257  586 L
4302 3605 mt 4352 3655 L
4352 3605 mt 4302 3655 L
4315 1211 mt 4365 1261 L
4365 1211 mt 4315 1261 L
4327  448 mt 4377  498 L
4377  448 mt 4327  498 L
4354  516 mt 4404  566 L
4404  516 mt 4354  566 L
4366 3524 mt 4416 3574 L
4416 3524 mt 4366 3574 L
4385 1140 mt 4435 1190 L
4435 1140 mt 4385 1190 L
4409  442 mt 4459  492 L
4459  442 mt 4409  492 L
4427 3443 mt 4477 3493 L
4477 3443 mt 4427 3493 L
4450  495 mt 4500  545 L
4500  495 mt 4450  545 L
4460 1070 mt 4510 1120 L
4510 1070 mt 4460 1120 L
4484 3363 mt 4534 3413 L
4534 3363 mt 4484 3413 L
4512  421 mt 4562  471 L
4562  421 mt 4512  471 L
4534 1004 mt 4584 1054 L
4584 1004 mt 4534 1054 L
4542 3283 mt 4592 3333 L
4592 3283 mt 4542 3333 L
4580  474 mt 4630  524 L
4630  474 mt 4580  524 L
4599 3201 mt 4649 3251 L
4649 3201 mt 4599 3251 L
4601  422 mt 4651  472 L
4651  422 mt 4601  472 L
4608  943 mt 4658  993 L
4658  943 mt 4608  993 L
4650 3120 mt 4700 3170 L
4700 3120 mt 4650 3170 L
4682  896 mt 4732  946 L
4732  896 mt 4682  946 L
4701 3041 mt 4751 3091 L
4751 3041 mt 4701 3091 L
4717  416 mt 4767  466 L
4767  416 mt 4717  466 L
4751  446 mt 4801  496 L
4801  446 mt 4751  496 L
4755 2956 mt 4805 3006 L
4805 2956 mt 4755 3006 L
4756  848 mt 4806  898 L
4806  848 mt 4756  898 L
4809 2871 mt 4859 2921 L
4859 2871 mt 4809 2921 L
4830  801 mt 4880  851 L
4880  801 mt 4830  851 L
4846  440 mt 4896  490 L
4896  440 mt 4846  490 L
4859 2789 mt 4909 2839 L
4909 2789 mt 4859 2839 L
4903  755 mt 4953  805 L
4953  755 mt 4903  805 L
4907 2712 mt 4957 2762 L
4957 2712 mt 4907 2762 L
4928  396 mt 4978  446 L
4978  396 mt 4928  446 L
4951 2641 mt 5001 2691 L
5001 2641 mt 4951 2691 L
4977  716 mt 5027  766 L
5027  716 mt 4977  766 L
4983  419 mt 5033  469 L
5033  419 mt 4983  469 L
4995 2567 mt 5045 2617 L
5045 2567 mt 4995 2617 L
5045 2483 mt 5095 2533 L
5095 2483 mt 5045 2533 L
5051  684 mt 5101  734 L
5101  684 mt 5051  734 L
5096 2401 mt 5146 2451 L
5146 2401 mt 5096 2451 L
5120  413 mt 5170  463 L
5170  413 mt 5120  463 L
5125  651 mt 5175  701 L
5175  651 mt 5125  701 L
5143 2318 mt 5193 2368 L
5193 2318 mt 5143 2368 L
5191 2239 mt 5241 2289 L
5241 2239 mt 5191 2289 L
5199  619 mt 5249  669 L
5249  619 mt 5199  669 L
5222  400 mt 5272  450 L
5272  400 mt 5222  450 L
5241 2156 mt 5291 2206 L
5291 2156 mt 5241 2206 L
5273  596 mt 5323  646 L
5323  596 mt 5273  646 L
5292 2076 mt 5342 2126 L
5342 2076 mt 5292 2126 L
5343 1995 mt 5393 2045 L
5393 1995 mt 5343 2045 L
5347  573 mt 5397  623 L
5397  573 mt 5347  623 L
5393 1914 mt 5443 1964 L
5443 1914 mt 5393 1964 L
5421  549 mt 5471  599 L
5471  549 mt 5421  599 L
5444 1836 mt 5494 1886 L
5494 1836 mt 5444 1886 L
5494  531 mt 5544  581 L
5544  531 mt 5494  581 L
5501 1756 mt 5551 1806 L
5551 1756 mt 5501 1806 L
5562 1671 mt 5612 1721 L
5612 1671 mt 5562 1721 L
5568  514 mt 5618  564 L
5618  514 mt 5568  564 L
5620 1592 mt 5670 1642 L
5670 1592 mt 5620 1642 L
5642  497 mt 5692  547 L
5692  497 mt 5642  547 L
5677 1510 mt 5727 1560 L
5727 1510 mt 5677 1560 L
5716  479 mt 5766  529 L
5766  479 mt 5716  529 L
5738 1425 mt 5788 1475 L
5788 1425 mt 5738 1475 L
5790  466 mt 5840  516 L
5840  466 mt 5790  516 L
5802 1346 mt 5852 1396 L
5852 1346 mt 5802 1396 L
5863  454 mt 5913  504 L
5913  454 mt 5863  504 L
5873 1266 mt 5923 1316 L
5923 1266 mt 5873 1316 L
5937  443 mt 5987  493 L
5987  443 mt 5937  493 L
5947 1187 mt 5997 1237 L
5997 1187 mt 5947 1237 L
6011  432 mt 6061  482 L
6061  432 mt 6011  482 L
6021 1107 mt 6071 1157 L
6071 1107 mt 6021 1157 L
6085  423 mt 6135  473 L
6135  423 mt 6085  473 L
6095 1040 mt 6145 1090 L
6145 1040 mt 6095 1090 L
6159  413 mt 6209  463 L
6209  413 mt 6159  463 L
6169  974 mt 6219 1024 L
6219  974 mt 6169 1024 L
6232  397 mt 6282  447 L
6282  397 mt 6232  447 L
6243  914 mt 6293  964 L
6293  914 mt 6243  964 L
6306  387 mt 6356  437 L
6356  387 mt 6306  437 L
6317  861 mt 6367  911 L
6367  861 mt 6317  911 L
6380  381 mt 6430  431 L
6430  381 mt 6380  431 L
6391  815 mt 6441  865 L
6441  815 mt 6391  865 L
6465  769 mt 6515  819 L
6515  769 mt 6465  819 L
6539  724 mt 6589  774 L
6589  724 mt 6539  774 L
6613  683 mt 6663  733 L
6663  683 mt 6613  733 L
6687  652 mt 6737  702 L
6737  652 mt 6687  702 L
6761  621 mt 6811  671 L
6811  621 mt 6761  671 L
6821  596 mt 6871  646 L
6871  596 mt 6821  646 L
gs 991 401 5908 4359 rc
6 w
gr

6 w
1 sg
0 1028 1322 0 0 -1028 5516 4700 4 MP
PP
-1322 0 0 1028 1322 0 0 -1028 5516 4700 5 MP stroke
4 w
DO
SO
6 w
0 sg
5516 4700 mt 6838 4700 L
5516 3672 mt 6838 3672 L
5516 4700 mt 5516 3672 L
6838 4700 mt 6838 3672 L
5516 4700 mt 6838 4700 L
5516 4700 mt 5516 3672 L
5516 4700 mt 6838 4700 L
5516 3672 mt 6838 3672 L
5516 4700 mt 5516 3672 L
6838 4700 mt 6838 3672 L
%%IncludeResource: font Symbol
/Symbol /ISOLatin1Encoding 120 FMSR

5975 3781 mt 
(a) s
%%IncludeResource: font Helvetica
/Helvetica /ISOLatin1Encoding 96 FMSR

6050 3841 mt 
(u) s
%%IncludeResource: font Helvetica
/Helvetica /ISOLatin1Encoding 120 FMSR

6103 3781 mt 
( = 0.01) s
gs 5516 3672 1323 1029 rc
24 w
c8
353 0 5586 3792 2 MP stroke
gr

24 w
c8
0 sg
%%IncludeResource: font Symbol
/Symbol /ISOLatin1Encoding 120 FMSR

5975 3988 mt 
(a) s
%%IncludeResource: font Helvetica
/Helvetica /ISOLatin1Encoding 96 FMSR

6050 4048 mt 
(u) s
%%IncludeResource: font Helvetica
/Helvetica /ISOLatin1Encoding 120 FMSR

6103 3988 mt 
( = 0.1) s
gs 5516 3672 1323 1029 rc
c9
353 0 5586 3999 2 MP stroke
gr

c9
0 sg
%%IncludeResource: font Symbol
/Symbol /ISOLatin1Encoding 120 FMSR

5975 4195 mt 
(a) s
%%IncludeResource: font Helvetica
/Helvetica /ISOLatin1Encoding 96 FMSR

6050 4255 mt 
(u) s
%%IncludeResource: font Helvetica
/Helvetica /ISOLatin1Encoding 120 FMSR

6103 4195 mt 
( = 1) s
gs 5516 3672 1323 1029 rc
c10
353 0 5586 4206 2 MP stroke
gr

c10
0 sg
%%IncludeResource: font Symbol
/Symbol /ISOLatin1Encoding 120 FMSR

5975 4401 mt 
(a) s
%%IncludeResource: font Helvetica
/Helvetica /ISOLatin1Encoding 96 FMSR

6050 4461 mt 
(u) s
%%IncludeResource: font Helvetica
/Helvetica /ISOLatin1Encoding 120 FMSR

6103 4401 mt 
( = 10) s
gs 5516 3672 1323 1029 rc
c11
353 0 5586 4412 2 MP stroke
gr

c11
0 sg
5975 4642 mt 
(Shan reference) s
gs 5516 3672 1323 1029 rc
12 w
gs 5689 4526 147 147 rc
c12
5737 4574 mt 5787 4624 L
5787 4574 mt 5737 4624 L
gr

c12
6 w
gr

6 w
c12

end %%Color Dict

eplot
%%EndObject

epage
end

showpage

%%Trailer
%%EOF
