%!PS-Adobe-3.0 EPSF-3.0
%%Creator: MATLAB, The MathWorks, Inc. Version 8.3.0.532 (R2014a). Operating System: Linux 3.7.10-1.40-desktop #1 SMP PREEMPT Thu Jul 10 11:22:12 UTC 2014 (9b06319) x86_64.
%%Title: /home/student/2014/scholz/Dokumente/final data/pressure_wall_3_compare.eps
%%CreationDate: 11/18/2014  15:33:49
%%DocumentNeededFonts: Helvetica
%%DocumentProcessColors: Cyan Magenta Yellow Black
%%LanguageLevel: 2
%%Pages: 1
%%BoundingBox:    78   206   533   586
%%EndComments

%%BeginProlog
% MathWorks dictionary
/MathWorks 160 dict begin
% definition operators
/bdef {bind def} bind def
/ldef {load def} bind def
/xdef {exch def} bdef
/xstore {exch store} bdef
% operator abbreviations
/c  /clip ldef
/cc /concat ldef
/cp /closepath ldef
/gr /grestore ldef
/gs /gsave ldef
/mt /moveto ldef
/np /newpath ldef
/cm /currentmatrix ldef
/sm /setmatrix ldef
/rm /rmoveto ldef
/rl /rlineto ldef
/s {show newpath} bdef
/sc {setcmykcolor} bdef
/sr /setrgbcolor ldef
/sg /setgray ldef
/w /setlinewidth ldef
/j /setlinejoin ldef
/cap /setlinecap ldef
/rc {rectclip} bdef
/rf {rectfill} bdef
% page state control
/pgsv () def
/bpage {/pgsv save def} bdef
/epage {pgsv restore} bdef
/bplot /gsave ldef
/eplot {stroke grestore} bdef
% orientation switch
/portraitMode 0 def /landscapeMode 1 def /rotateMode 2 def
% coordinate system mappings
/dpi2point 0 def
% font control
/FontSize 0 def
/FMS {/FontSize xstore findfont [FontSize 0 0 FontSize neg 0 0]
  makefont setfont} bdef
/reencode {exch dup where {pop load} {pop StandardEncoding} ifelse
  exch dup 3 1 roll findfont dup length dict begin
  { 1 index /FID ne {def}{pop pop} ifelse } forall
  /Encoding exch def currentdict end definefont pop} bdef
/isroman {findfont /CharStrings get /Agrave known} bdef
/FMSR {3 1 roll 1 index dup isroman {reencode} {pop pop} ifelse
  exch FMS} bdef
/csm {1 dpi2point div -1 dpi2point div scale neg translate
 dup landscapeMode eq {pop -90 rotate}
  {rotateMode eq {90 rotate} if} ifelse} bdef
% line types: solid, dotted, dashed, dotdash
/SO { [] 0 setdash } bdef
/DO { [.5 dpi2point mul 4 dpi2point mul] 0 setdash } bdef
/DA { [6 dpi2point mul] 0 setdash } bdef
/DD { [.5 dpi2point mul 4 dpi2point mul 6 dpi2point mul 4
  dpi2point mul] 0 setdash } bdef
% macros for lines and objects
/L {lineto stroke} bdef
/MP {3 1 roll moveto 1 sub {rlineto} repeat} bdef
/AP {{rlineto} repeat} bdef
/PDlw -1 def
/W {/PDlw currentlinewidth def setlinewidth} def
/PP {closepath eofill} bdef
/DP {closepath stroke} bdef
/MR {4 -2 roll moveto dup  0 exch rlineto exch 0 rlineto
  neg 0 exch rlineto closepath} bdef
/FR {MR stroke} bdef
/PR {MR fill} bdef
/L1i {{currentfile picstr readhexstring pop} image} bdef
/tMatrix matrix def
/MakeOval {newpath tMatrix currentmatrix pop translate scale
0 0 1 0 360 arc tMatrix setmatrix} bdef
/FO {MakeOval stroke} bdef
/PO {MakeOval fill} bdef
/PD {currentlinewidth 2 div 0 360 arc fill
   PDlw -1 eq not {PDlw w /PDlw -1 def} if} def
/FA {newpath tMatrix currentmatrix pop translate scale
  0 0 1 5 -2 roll arc tMatrix setmatrix stroke} bdef
/PA {newpath tMatrix currentmatrix pop	translate 0 0 moveto scale
  0 0 1 5 -2 roll arc closepath tMatrix setmatrix fill} bdef
/FAn {newpath tMatrix currentmatrix pop translate scale
  0 0 1 5 -2 roll arcn tMatrix setmatrix stroke} bdef
/PAn {newpath tMatrix currentmatrix pop translate 0 0 moveto scale
  0 0 1 5 -2 roll arcn closepath tMatrix setmatrix fill} bdef
/vradius 0 def /hradius 0 def /lry 0 def
/lrx 0 def /uly 0 def /ulx 0 def /rad 0 def
/MRR {/vradius xdef /hradius xdef /lry xdef /lrx xdef /uly xdef
  /ulx xdef newpath tMatrix currentmatrix pop ulx hradius add uly
  vradius add translate hradius vradius scale 0 0 1 180 270 arc 
  tMatrix setmatrix lrx hradius sub uly vradius add translate
  hradius vradius scale 0 0 1 270 360 arc tMatrix setmatrix
  lrx hradius sub lry vradius sub translate hradius vradius scale
  0 0 1 0 90 arc tMatrix setmatrix ulx hradius add lry vradius sub
  translate hradius vradius scale 0 0 1 90 180 arc tMatrix setmatrix
  closepath} bdef
/FRR {MRR stroke } bdef
/PRR {MRR fill } bdef
/MlrRR {/lry xdef /lrx xdef /uly xdef /ulx xdef /rad lry uly sub 2 div def
  newpath tMatrix currentmatrix pop ulx rad add uly rad add translate
  rad rad scale 0 0 1 90 270 arc tMatrix setmatrix lrx rad sub lry rad
  sub translate rad rad scale 0 0 1 270 90 arc tMatrix setmatrix
  closepath} bdef
/FlrRR {MlrRR stroke } bdef
/PlrRR {MlrRR fill } bdef
/MtbRR {/lry xdef /lrx xdef /uly xdef /ulx xdef /rad lrx ulx sub 2 div def
  newpath tMatrix currentmatrix pop ulx rad add uly rad add translate
  rad rad scale 0 0 1 180 360 arc tMatrix setmatrix lrx rad sub lry rad
  sub translate rad rad scale 0 0 1 0 180 arc tMatrix setmatrix
  closepath} bdef
/FtbRR {MtbRR stroke } bdef
/PtbRR {MtbRR fill } bdef
/stri 6 array def /dtri 6 array def
/smat 6 array def /dmat 6 array def
/tmat1 6 array def /tmat2 6 array def /dif 3 array def
/asub {/ind2 exch def /ind1 exch def dup dup
  ind1 get exch ind2 get sub exch } bdef
/tri_to_matrix {
  2 0 asub 3 1 asub 4 0 asub 5 1 asub
  dup 0 get exch 1 get 7 -1 roll astore } bdef
/compute_transform {
  dmat dtri tri_to_matrix tmat1 invertmatrix 
  smat stri tri_to_matrix tmat2 concatmatrix } bdef
/ds {stri astore pop} bdef
/dt {dtri astore pop} bdef
/db {2 copy /cols xdef /rows xdef mul dup 3 mul string
  currentfile 
  3 index 0 eq {/ASCIIHexDecode filter}
  {/ASCII85Decode filter 3 index 2 eq {/RunLengthDecode filter} if }
  ifelse exch readstring pop
  dup 0 3 index getinterval /rbmap xdef
  dup 2 index dup getinterval /gbmap xdef
  1 index dup 2 mul exch getinterval /bbmap xdef pop pop}bdef
/it {gs np dtri aload pop moveto lineto lineto cp c
  cols rows 8 compute_transform 
  rbmap gbmap bbmap true 3 colorimage gr}bdef
/il {newpath moveto lineto stroke}bdef
currentdict end def
%%EndProlog

%%BeginSetup
MathWorks begin

0 cap

end
%%EndSetup

%%Page: 1 1
%%BeginPageSetup
%%PageBoundingBox:    78   206   533   586
MathWorks begin
bpage
%%EndPageSetup

%%BeginObject: obj1
bplot

/dpi2point 12 def
portraitMode 0936 7032 csm

    0     0  5463  4560 rc
85 dict begin %Colortable dictionary
/c0 { 0.000000 0.000000 0.000000 sr} bdef
/c1 { 1.000000 1.000000 1.000000 sr} bdef
/c2 { 0.900000 0.000000 0.000000 sr} bdef
/c3 { 0.000000 0.820000 0.000000 sr} bdef
/c4 { 0.000000 0.000000 0.800000 sr} bdef
/c5 { 0.910000 0.820000 0.320000 sr} bdef
/c6 { 1.000000 0.260000 0.820000 sr} bdef
/c7 { 0.000000 0.820000 0.820000 sr} bdef
c0
1 j
1 sg
   0    0 5464 4561 rf
6 w
0 3716 4234 0 0 -3716 710 4058 4 MP
PP
-4234 0 0 3716 4234 0 0 -3716 710 4058 5 MP stroke
4 w
DO
SO
6 w
0 sg
 710 4058 mt 4944 4058 L
 710  342 mt 4944  342 L
 710 4058 mt  710  342 L
4944 4058 mt 4944  342 L
 710 4058 mt 4944 4058 L
 710 4058 mt  710  342 L
 710 4058 mt  710 4015 L
 710  342 mt  710  384 L
%%IncludeResource: font Helvetica
/Helvetica /ISOLatin1Encoding 120 FMSR

 540 4203 mt 
(-100) s
1415 4058 mt 1415 4015 L
1415  342 mt 1415  384 L
1279 4203 mt 
(-50) s
2121 4058 mt 2121 4015 L
2121  342 mt 2121  384 L
2088 4203 mt 
(0) s
2827 4058 mt 2827 4015 L
2827  342 mt 2827  384 L
2761 4203 mt 
(50) s
3532 4058 mt 3532 4015 L
3532  342 mt 3532  384 L
3432 4203 mt 
(100) s
4238 4058 mt 4238 4015 L
4238  342 mt 4238  384 L
4138 4203 mt 
(150) s
4944 4058 mt 4944 4015 L
4944  342 mt 4944  384 L
4844 4203 mt 
(200) s
 710 4058 mt  752 4058 L
4944 4058 mt 4901 4058 L
 609 4102 mt 
(2) s
 710 3686 mt  752 3686 L
4944 3686 mt 4901 3686 L
 609 3730 mt 
(4) s
 710 3314 mt  752 3314 L
4944 3314 mt 4901 3314 L
 609 3358 mt 
(6) s
 710 2943 mt  752 2943 L
4944 2943 mt 4901 2943 L
 609 2987 mt 
(8) s
 710 2571 mt  752 2571 L
4944 2571 mt 4901 2571 L
 542 2615 mt 
(10) s
 710 2200 mt  752 2200 L
4944 2200 mt 4901 2200 L
 542 2244 mt 
(12) s
 710 1828 mt  752 1828 L
4944 1828 mt 4901 1828 L
 542 1872 mt 
(14) s
 710 1456 mt  752 1456 L
4944 1456 mt 4901 1456 L
 542 1500 mt 
(16) s
 710 1085 mt  752 1085 L
4944 1085 mt 4901 1085 L
 542 1129 mt 
(18) s
 710  713 mt  752  713 L
4944  713 mt 4901  713 L
 542  757 mt 
(20) s
 710  342 mt  752  342 L
4944  342 mt 4901  342 L
 542  386 mt 
(22) s
 710 4058 mt 4944 4058 L
 710  342 mt 4944  342 L
 710 4058 mt  710  342 L
4944 4058 mt 4944  342 L
gs 710 342 4235 3717 rc
24 w
/c8 { 0.000000 0.000000 1.000000 sr} bdef
c8
71 33 71 35 70 37 71 39 70 42 71 46 70 49 71 53 
71 58 70 65 71 72 70 80 71 93 70 107 71 129 71 157 
70 204 71 281 70 427 71 735 70 -749 71 -442 71 -296 70 -218 
71 -173 70 -143 71 -122 70 -108 71 -96 70 -87 71 -80 71 -74 
70 -69 71 -65 70 -62 71 -58 70 -57 71 -54 71 -52 70 -50 
2121 3482 41 MP stroke
/c9 { 0.000000 0.500000 0.000000 sr} bdef
c9
71 -23 70 -22 71 -21 70 -19 71 -19 71 -18 70 -17 71 -16 
70 -16 71 -15 70 -15 71 -14 71 -13 70 -13 71 -13 70 -12 
71 -12 70 -11 71 -12 70 -10 710 3793 21 MP stroke
gr

24 w
c9
0 sg
2081 4346 mt 
(Distance x from the fault [m]) s
 452 2978 mt  -90 rotate
(Pressure difference ) s
90 rotate
%%IncludeResource: font Symbol
/Symbol /ISOLatin1Encoding 120 FMSR

 452 1908 mt  -90 rotate
(D) s
90 rotate
%%IncludeResource: font Helvetica
/Helvetica /ISOLatin1Encoding 120 FMSR

 452 1835 mt  -90 rotate
( P [kPa]) s
90 rotate
1841  247 mt 
(Pressure change in the target aquifer) s
gs 710 342 4235 3717 rc
6 w
gr

6 w
/c10 { 1.000000 0.000000 0.000000 sr} bdef
c10
  36   36  792 3762 PO
  36   36  982 3735 PO
  36   36 1152 3714 PO
  36   36 1340 3677 PO
  36   36 1502 3645 PO
  36   36 1664 3602 PO
  36   36 1830 3565 PO
  36   36 1979 3518 PO
  36   36 2119 3470 PO
  36   36 2264 3365 PO
  36   36 2399 3249 PO
  36   36 2532 3127 PO
  36   36 2710 2970 PO
  36   36 2881 2791 PO
  36   36 3025 2581 PO
  36   36 3134 2371 PO
  36   36 3235 2166 PO
  36   36 3309 1935 PO
  36   36 3371 1715 PO
  36   36 3410 1505 PO
  36   36 3436 1290 PO
  36   36 3463 1033 PO
  36   36 3533  440 PO
  36   36 3611 1111 PO
  36   36 3641 1423 PO
  36   36 3697 1705 PO
  36   36 3768 1958 PO
  36   36 3863 2189 PO
  36   36 3991 2406 PO
  36   36 4164 2618 PO
  36   36 4338 2785 PO
  36   36 4488 2899 PO
  36   36 4683 3015 PO
  36   36 4835 3094 PO
0 sg
  36   36  792 3762 FO
  36   36  982 3735 FO
  36   36 1152 3714 FO
  36   36 1340 3677 FO
  36   36 1502 3645 FO
  36   36 1664 3602 FO
  36   36 1830 3565 FO
  36   36 1979 3518 FO
  36   36 2119 3470 FO
  36   36 2264 3365 FO
  36   36 2399 3249 FO
  36   36 2532 3127 FO
  36   36 2710 2970 FO
  36   36 2881 2791 FO
  36   36 3025 2581 FO
  36   36 3134 2371 FO
  36   36 3235 2166 FO
  36   36 3309 1935 FO
  36   36 3371 1715 FO
  36   36 3410 1505 FO
  36   36 3436 1290 FO
  36   36 3463 1033 FO
  36   36 3533  440 FO
  36   36 3611 1111 FO
  36   36 3641 1423 FO
  36   36 3697 1705 FO
  36   36 3768 1958 FO
  36   36 3863 2189 FO
  36   36 3991 2406 FO
  36   36 4164 2618 FO
  36   36 4338 2785 FO
  36   36 4488 2899 FO
  36   36 4683 3015 FO
  36   36 4835 3094 FO
gs 710 342 4235 3717 rc
gr

 693 4101 mt 
( ) s
4928  384 mt 
( ) s
1 sg
0 588 1502 0 0 -588 770 990 4 MP
PP
-1502 0 0 588 1502 0 0 -588 770 990 5 MP stroke
4 w
DO
SO
6 w
0 sg
 770  990 mt 2272  990 L
 770  402 mt 2272  402 L
 770  990 mt  770  402 L
2272  990 mt 2272  402 L
 770  990 mt 2272  990 L
 770  990 mt  770  402 L
 770  990 mt 2272  990 L
 770  402 mt 2272  402 L
 770  990 mt  770  402 L
2272  990 mt 2272  402 L
1224  511 mt 
(Scholz P) s
%%IncludeResource: font Helvetica
/Helvetica /ISOLatin1Encoding 96 FMSR

1697  571 mt 
(1) s
gs 770 402 1503 589 rc
24 w
c8
349 0 839 517 2 MP stroke
gr

24 w
c8
0 sg
%%IncludeResource: font Helvetica
/Helvetica /ISOLatin1Encoding 120 FMSR

1224  709 mt 
(Scholz P) s
%%IncludeResource: font Helvetica
/Helvetica /ISOLatin1Encoding 96 FMSR

1697  769 mt 
(2) s
gs 770 402 1503 589 rc
c9
349 0 839 715 2 MP stroke
gr

c9
0 sg
%%IncludeResource: font Helvetica
/Helvetica /ISOLatin1Encoding 120 FMSR

1224  936 mt 
(Zeidouni reference) s
gs 770 402 1503 589 rc
6 w
gs 941 820 147 147 rc
c10
  36   36 1014  893 PO
0 sg
  36   36 1014  893 FO
gr

gr

6 w

end %%Color Dict

eplot
%%EndObject

epage
end

showpage

%%Trailer
%%EOF
