%!PS-Adobe-3.0 EPSF-3.0
%%Creator: MATLAB, The MathWorks, Inc. Version 8.1.0.604 (R2013a). Operating System: Darwin 13.4.0 Darwin Kernel Version 13.4.0: Sun Aug 17 19:50:11 PDT 2014; root:xnu-2422.115.4~1/RELEASE_X86_64 x86_64.
%%Title: /Volumes/Macintosh HD/Users/simonscholz/Documents/Uni/6. Semester/Bachelorthesis/finale Version/20141208/Dokumente/Data_CD/twolayer/plots/pressure_wall_3_compare_upper.eps
%%CreationDate: 12/08/2014  21:19:59
%%DocumentNeededFonts: Helvetica
%%DocumentProcessColors: Cyan Magenta Yellow Black
%%LanguageLevel: 2
%%Pages: 1
%%BoundingBox:    15   187   579   653
%%EndComments

%%BeginProlog
% MathWorks dictionary
/MathWorks 160 dict begin
% definition operators
/bdef {bind def} bind def
/ldef {load def} bind def
/xdef {exch def} bdef
/xstore {exch store} bdef
% operator abbreviations
/c  /clip ldef
/cc /concat ldef
/cp /closepath ldef
/gr /grestore ldef
/gs /gsave ldef
/mt /moveto ldef
/np /newpath ldef
/cm /currentmatrix ldef
/sm /setmatrix ldef
/rm /rmoveto ldef
/rl /rlineto ldef
/s {show newpath} bdef
/sc {setcmykcolor} bdef
/sr /setrgbcolor ldef
/sg /setgray ldef
/w /setlinewidth ldef
/j /setlinejoin ldef
/cap /setlinecap ldef
/rc {rectclip} bdef
/rf {rectfill} bdef
% page state control
/pgsv () def
/bpage {/pgsv save def} bdef
/epage {pgsv restore} bdef
/bplot /gsave ldef
/eplot {stroke grestore} bdef
% orientation switch
/portraitMode 0 def /landscapeMode 1 def /rotateMode 2 def
% coordinate system mappings
/dpi2point 0 def
% font control
/FontSize 0 def
/FMS {/FontSize xstore findfont [FontSize 0 0 FontSize neg 0 0]
  makefont setfont} bdef
/reencode {exch dup where {pop load} {pop StandardEncoding} ifelse
  exch dup 3 1 roll findfont dup length dict begin
  { 1 index /FID ne {def}{pop pop} ifelse } forall
  /Encoding exch def currentdict end definefont pop} bdef
/isroman {findfont /CharStrings get /Agrave known} bdef
/FMSR {3 1 roll 1 index dup isroman {reencode} {pop pop} ifelse
  exch FMS} bdef
/csm {1 dpi2point div -1 dpi2point div scale neg translate
 dup landscapeMode eq {pop -90 rotate}
  {rotateMode eq {90 rotate} if} ifelse} bdef
% line types: solid, dotted, dashed, dotdash
/SO { [] 0 setdash } bdef
/DO { [.5 dpi2point mul 4 dpi2point mul] 0 setdash } bdef
/DA { [6 dpi2point mul] 0 setdash } bdef
/DD { [.5 dpi2point mul 4 dpi2point mul 6 dpi2point mul 4
  dpi2point mul] 0 setdash } bdef
% macros for lines and objects
/L {lineto stroke} bdef
/MP {3 1 roll moveto 1 sub {rlineto} repeat} bdef
/AP {{rlineto} repeat} bdef
/PDlw -1 def
/W {/PDlw currentlinewidth def setlinewidth} def
/PP {closepath eofill} bdef
/DP {closepath stroke} bdef
/MR {4 -2 roll moveto dup  0 exch rlineto exch 0 rlineto
  neg 0 exch rlineto closepath} bdef
/FR {MR stroke} bdef
/PR {MR fill} bdef
/L1i {{currentfile picstr readhexstring pop} image} bdef
/tMatrix matrix def
/MakeOval {newpath tMatrix currentmatrix pop translate scale
0 0 1 0 360 arc tMatrix setmatrix} bdef
/FO {MakeOval stroke} bdef
/PO {MakeOval fill} bdef
/PD {currentlinewidth 2 div 0 360 arc fill
   PDlw -1 eq not {PDlw w /PDlw -1 def} if} def
/FA {newpath tMatrix currentmatrix pop translate scale
  0 0 1 5 -2 roll arc tMatrix setmatrix stroke} bdef
/PA {newpath tMatrix currentmatrix pop	translate 0 0 moveto scale
  0 0 1 5 -2 roll arc closepath tMatrix setmatrix fill} bdef
/FAn {newpath tMatrix currentmatrix pop translate scale
  0 0 1 5 -2 roll arcn tMatrix setmatrix stroke} bdef
/PAn {newpath tMatrix currentmatrix pop translate 0 0 moveto scale
  0 0 1 5 -2 roll arcn closepath tMatrix setmatrix fill} bdef
/vradius 0 def /hradius 0 def /lry 0 def
/lrx 0 def /uly 0 def /ulx 0 def /rad 0 def
/MRR {/vradius xdef /hradius xdef /lry xdef /lrx xdef /uly xdef
  /ulx xdef newpath tMatrix currentmatrix pop ulx hradius add uly
  vradius add translate hradius vradius scale 0 0 1 180 270 arc 
  tMatrix setmatrix lrx hradius sub uly vradius add translate
  hradius vradius scale 0 0 1 270 360 arc tMatrix setmatrix
  lrx hradius sub lry vradius sub translate hradius vradius scale
  0 0 1 0 90 arc tMatrix setmatrix ulx hradius add lry vradius sub
  translate hradius vradius scale 0 0 1 90 180 arc tMatrix setmatrix
  closepath} bdef
/FRR {MRR stroke } bdef
/PRR {MRR fill } bdef
/MlrRR {/lry xdef /lrx xdef /uly xdef /ulx xdef /rad lry uly sub 2 div def
  newpath tMatrix currentmatrix pop ulx rad add uly rad add translate
  rad rad scale 0 0 1 90 270 arc tMatrix setmatrix lrx rad sub lry rad
  sub translate rad rad scale 0 0 1 270 90 arc tMatrix setmatrix
  closepath} bdef
/FlrRR {MlrRR stroke } bdef
/PlrRR {MlrRR fill } bdef
/MtbRR {/lry xdef /lrx xdef /uly xdef /ulx xdef /rad lrx ulx sub 2 div def
  newpath tMatrix currentmatrix pop ulx rad add uly rad add translate
  rad rad scale 0 0 1 180 360 arc tMatrix setmatrix lrx rad sub lry rad
  sub translate rad rad scale 0 0 1 0 180 arc tMatrix setmatrix
  closepath} bdef
/FtbRR {MtbRR stroke } bdef
/PtbRR {MtbRR fill } bdef
/stri 6 array def /dtri 6 array def
/smat 6 array def /dmat 6 array def
/tmat1 6 array def /tmat2 6 array def /dif 3 array def
/asub {/ind2 exch def /ind1 exch def dup dup
  ind1 get exch ind2 get sub exch } bdef
/tri_to_matrix {
  2 0 asub 3 1 asub 4 0 asub 5 1 asub
  dup 0 get exch 1 get 7 -1 roll astore } bdef
/compute_transform {
  dmat dtri tri_to_matrix tmat1 invertmatrix 
  smat stri tri_to_matrix tmat2 concatmatrix } bdef
/ds {stri astore pop} bdef
/dt {dtri astore pop} bdef
/db {2 copy /cols xdef /rows xdef mul dup 3 mul string
  currentfile 
  3 index 0 eq {/ASCIIHexDecode filter}
  {/ASCII85Decode filter 3 index 2 eq {/RunLengthDecode filter} if }
  ifelse exch readstring pop
  dup 0 3 index getinterval /rbmap xdef
  dup 2 index dup getinterval /gbmap xdef
  1 index dup 2 mul exch getinterval /bbmap xdef pop pop}bdef
/it {gs np dtri aload pop moveto lineto lineto cp c
  cols rows 8 compute_transform 
  rbmap gbmap bbmap true 3 colorimage gr}bdef
/il {newpath moveto lineto stroke}bdef
currentdict end def
%%EndProlog

%%BeginSetup
MathWorks begin

0 cap

end
%%EndSetup

%%Page: 1 1
%%BeginPageSetup
%%PageBoundingBox:    15   187   579   653
MathWorks begin
bpage
%%EndPageSetup

%%BeginObject: obj1
bplot

/dpi2point 12 def
portraitMode 0180 7836 csm

    0     0  6771  5586 rc
85 dict begin %Colortable dictionary
/c0 { 0.000000 0.000000 0.000000 sr} bdef
/c1 { 1.000000 1.000000 1.000000 sr} bdef
/c2 { 0.900000 0.000000 0.000000 sr} bdef
/c3 { 0.000000 0.820000 0.000000 sr} bdef
/c4 { 0.000000 0.000000 0.800000 sr} bdef
/c5 { 0.910000 0.820000 0.320000 sr} bdef
/c6 { 1.000000 0.260000 0.820000 sr} bdef
/c7 { 0.000000 0.820000 0.820000 sr} bdef
c0
1 j
1 sg
   0    0 6772 5587 rf
6 w
0 4553 5248 0 0 -4553 880 4972 4 MP
PP
-5248 0 0 4553 5248 0 0 -4553 880 4972 5 MP stroke
4 w
DO
SO
6 w
0 sg
 880 4972 mt 6128 4972 L
 880  419 mt 6128  419 L
 880 4972 mt  880  419 L
6128 4972 mt 6128  419 L
 880 4972 mt 6128 4972 L
 880 4972 mt  880  419 L
 880 4972 mt  880 4919 L
 880  419 mt  880  471 L
%%IncludeResource: font Helvetica
/Helvetica /ISOLatin1Encoding 120 FMSR

 710 5117 mt 
(-100) s
1754 4972 mt 1754 4919 L
1754  419 mt 1754  471 L
1618 5117 mt 
(-50) s
2629 4972 mt 2629 4919 L
2629  419 mt 2629  471 L
2596 5117 mt 
(0) s
3504 4972 mt 3504 4919 L
3504  419 mt 3504  471 L
3438 5117 mt 
(50) s
4378 4972 mt 4378 4919 L
4378  419 mt 4378  471 L
4278 5117 mt 
(100) s
5253 4972 mt 5253 4919 L
5253  419 mt 5253  471 L
5153 5117 mt 
(150) s
6128 4972 mt 6128 4919 L
6128  419 mt 6128  471 L
6028 5117 mt 
(200) s
 880 4972 mt  932 4972 L
6128 4972 mt 6075 4972 L
 679 5016 mt 
(1.8) s
 880 4516 mt  932 4516 L
6128 4516 mt 6075 4516 L
 779 4560 mt 
(2) s
 880 4061 mt  932 4061 L
6128 4061 mt 6075 4061 L
 679 4105 mt 
(2.2) s
 880 3606 mt  932 3606 L
6128 3606 mt 6075 3606 L
 679 3650 mt 
(2.4) s
 880 3150 mt  932 3150 L
6128 3150 mt 6075 3150 L
 679 3194 mt 
(2.6) s
 880 2695 mt  932 2695 L
6128 2695 mt 6075 2695 L
 679 2739 mt 
(2.8) s
 880 2240 mt  932 2240 L
6128 2240 mt 6075 2240 L
 779 2284 mt 
(3) s
 880 1784 mt  932 1784 L
6128 1784 mt 6075 1784 L
 679 1828 mt 
(3.2) s
 880 1329 mt  932 1329 L
6128 1329 mt 6075 1329 L
 679 1373 mt 
(3.4) s
 880  874 mt  932  874 L
6128  874 mt 6075  874 L
 679  918 mt 
(3.6) s
 880  419 mt  932  419 L
6128  419 mt 6075  419 L
 679  463 mt 
(3.8) s
 880 4972 mt 6128 4972 L
 880  419 mt 6128  419 L
 880 4972 mt  880  419 L
6128 4972 mt 6128  419 L
gs 880 418 5249 4555 rc
24 w
/c8 { 0.000000 0.000000 1.000000 sr} bdef
c8
88 61 87 62 88 64 87 64 88 66 87 66 88 68 87 70 
88 70 87 72 88 74 87 75 88 76 87 78 87 79 88 82 
87 83 88 84 87 87 88 89 87 90 88 93 87 95 88 98 
87 100 88 102 87 105 88 108 87 111 87 114 88 117 87 121 
88 125 87 128 88 133 87 137 88 141 87 147 88 153 87 158 
88 -158 87 -153 88 -147 87 -141 87 -137 88 -133 87 -128 88 -125 
87 -121 88 -117 87 -114 88 -111 87 -108 88 -105 87 -102 88 -100 
87 -98 88 -95 87 -93 87 -90 880 3073 61 MP stroke
gr

24 w
c8
0 sg
2758 5260 mt 
(Distance x from the fault [m]) s
 589 3473 mt  -90 rotate
(Pressure difference ) s
90 rotate
%%IncludeResource: font Symbol
/Symbol /ISOLatin1Encoding 120 FMSR

 589 2403 mt  -90 rotate
(D) s
90 rotate
%%IncludeResource: font Helvetica
/Helvetica /ISOLatin1Encoding 120 FMSR

 589 2330 mt  -90 rotate
( P [kPa]) s
90 rotate
2518  323 mt 
(Pressure change in the upper aquifer) s
gs 880 418 5249 4555 rc
6 w
gr

6 w
/c9 { 1.000000 0.000000 0.000000 sr} bdef
c9
  36   36  880 3072 PO
  36   36 1204 2712 PO
  36   36 1433 2442 PO
  36   36 1641 2198 PO
  36   36 1870 1896 PO
  36   36 2059 1624 PO
  36   36 2238 1356 PO
  36   36 2397 1100 PO
  36   36 2510  932 PO
  36   36 2627  740 PO
  36   36 2755  965 PO
  36   36 2904 1221 PO
  36   36 3073 1475 PO
  36   36 3252 1737 PO
  36   36 3422 1978 PO
  36   36 3620 2237 PO
  36   36 3829 2487 PO
  36   36 4048 2735 PO
  36   36 4267 2970 PO
  36   36 4486 3197 PO
  36   36 4705 3411 PO
  36   36 4923 3603 PO
  36   36 5142 3792 PO
  36   36 5361 3968 PO
  36   36 5570 4132 PO
  36   36 5799 4302 PO
  36   36 6017 4463 PO
  36   36 6126 4534 PO
0 sg
  36   36  880 3072 FO
  36   36 1204 2712 FO
  36   36 1433 2442 FO
  36   36 1641 2198 FO
  36   36 1870 1896 FO
  36   36 2059 1624 FO
  36   36 2238 1356 FO
  36   36 2397 1100 FO
  36   36 2510  932 FO
  36   36 2627  740 FO
  36   36 2755  965 FO
  36   36 2904 1221 FO
  36   36 3073 1475 FO
  36   36 3252 1737 FO
  36   36 3422 1978 FO
  36   36 3620 2237 FO
  36   36 3829 2487 FO
  36   36 4048 2735 FO
  36   36 4267 2970 FO
  36   36 4486 3197 FO
  36   36 4705 3411 FO
  36   36 4923 3603 FO
  36   36 5142 3792 FO
  36   36 5361 3968 FO
  36   36 5570 4132 FO
  36   36 5799 4302 FO
  36   36 6017 4463 FO
  36   36 6126 4534 FO
gs 880 418 5249 4555 rc
gr

 863 5015 mt 
( ) s
6112  460 mt 
( ) s
1 sg
0 388 1502 0 0 -388 4567 866 4 MP
PP
-1502 0 0 388 1502 0 0 -388 4567 866 5 MP stroke
4 w
DO
SO
6 w
0 sg
4567  866 mt 6069  866 L
4567  478 mt 6069  478 L
4567  866 mt 4567  478 L
6069  866 mt 6069  478 L
4567  866 mt 6069  866 L
4567  866 mt 4567  478 L
4567  866 mt 6069  866 L
4567  478 mt 6069  478 L
4567  866 mt 4567  478 L
6069  866 mt 6069  478 L
5011  588 mt 
(Scholz P) s
%%IncludeResource: font Helvetica
/Helvetica /ISOLatin1Encoding 96 FMSR

5484  648 mt 
(u) s
gs 4567 478 1503 389 rc
24 w
c8
341 0 4635 594 2 MP stroke
gr

24 w
c8
0 sg
%%IncludeResource: font Helvetica
/Helvetica /ISOLatin1Encoding 120 FMSR

5011  813 mt 
(Zeidouni reference) s
gs 4567 478 1503 389 rc
6 w
gs 4732 697 147 147 rc
c9
  36   36 4805  770 PO
0 sg
  36   36 4805  770 FO
gr

gr

6 w

end %%Color Dict

eplot
%%EndObject

epage
end

showpage

%%Trailer
%%EOF
